# This file uses meters as units for non-parametric coordinates.

mtllib wall_cafe_window.mtl
g default
v 200.000000 11.218536 -0.188477
v 200.000000 89.785950 -0.188477
v 0.000000 89.785950 -0.188477
v 0.000000 11.218536 -0.188477
v 0.000000 11.218536 0.894165
v 200.000000 11.218536 0.894165
v 0.000000 0.119781 0.894165
v 200.000000 0.119781 0.894165
v 200.000000 89.785950 0.942139
v 0.000000 89.785950 0.942139
v 200.000000 99.961548 0.942139
v 0.000000 99.961548 0.942139
v 200.000000 99.961548 -0.942139
v 0.000000 99.961548 -0.942139
v 200.000000 278.705780 -0.942139
v 0.000000 278.705780 -0.942139
v 189.345581 107.699707 -0.942139
v 10.654419 107.699707 -0.942139
v 189.345581 270.967621 -0.942139
v 10.654419 270.967621 -0.942139
v 189.345581 107.699707 -10.000000
v 10.654419 107.699707 -10.000000
v 189.345581 270.967621 -10.000000
v 10.654419 270.967621 -10.000000
vt 0.005956 0.067454
vt 0.995942 0.067454
vt 0.995942 0.298743
vt 0.008653 0.995806
vt 0.005956 0.047351
vt 0.995942 0.047351
vt 0.005956 0.006521
vt 0.995942 0.006521
vt 0.143906 0.308207
vt 0.143906 0.995806
vt 0.182273 0.308207
vt 0.182273 0.995806
vt 0.253150 0.308207
vt 0.253150 0.995806
vt 0.341404 0.906966
vt 0.341404 0.385267
vt 0.916848 0.385267
vt 0.916848 0.906966
vt 0.258572 0.989567
vt 0.258572 0.302666
vt 0.290656 0.339259
vt 0.290656 0.952974
vt 0.999680 0.302666
vt 0.967596 0.339259
vt 0.999680 0.989567
vt 0.967596 0.952974
vt 0.008653 0.308207
vt 0.005956 0.298743
vn 0.000000 0.000000 1.000000
vn 0.000000 0.000000 1.000000
vn 0.000000 0.000000 1.000000
vn 0.000000 0.000000 1.000000
vn 0.000000 1.000000 0.000000
vn 0.000000 1.000000 0.000000
vn 0.000000 1.000000 0.000000
vn 0.000000 1.000000 0.000000
vn 0.000000 0.000000 1.000000
vn 0.000000 0.000000 1.000000
vn 0.000000 0.000000 1.000000
vn 0.000000 0.000000 1.000000
vn 0.000000 -1.000000 0.000000
vn 0.000000 -1.000000 0.000000
vn 0.000000 -1.000000 0.000000
vn 0.000000 -1.000000 0.000000
vn 0.000000 0.000000 1.000000
vn 0.000000 0.000000 1.000000
vn 0.000000 0.000000 1.000000
vn 0.000000 0.000000 1.000000
vn 0.000000 1.000000 0.000000
vn 0.000000 1.000000 0.000000
vn 0.000000 1.000000 0.000000
vn 0.000000 1.000000 0.000000
vn 0.000000 0.000000 1.000000
vn 0.000000 0.000000 1.000000
vn 0.000000 0.000000 1.000000
vn 0.000000 0.000000 1.000000
vn 0.000000 0.000000 1.000000
vn 0.000000 0.000000 1.000000
vn 0.000000 0.000000 1.000000
vn 0.000000 0.000000 1.000000
vn 0.000000 0.000000 1.000000
vn 0.000000 0.000000 1.000000
vn 0.000000 0.000000 1.000000
vn 0.000000 0.000000 1.000000
vn -0.000000 0.000000 1.000000
vn -0.000000 0.000000 1.000000
vn -0.000000 0.000000 1.000000
vn -0.000000 0.000000 1.000000
vn 0.000000 1.000000 0.000000
vn 0.000000 1.000000 0.000000
vn 0.000000 1.000000 0.000000
vn 0.000000 1.000000 0.000000
vn -1.000000 0.000000 0.000000
vn -1.000000 0.000000 0.000000
vn -1.000000 0.000000 0.000000
vn -1.000000 0.000000 0.000000
vn 0.000000 -1.000000 0.000000
vn 0.000000 -1.000000 0.000000
vn 0.000000 -1.000000 0.000000
vn 0.000000 -1.000000 0.000000
vn 1.000000 0.000000 0.000000
vn 1.000000 0.000000 0.000000
vn 1.000000 0.000000 0.000000
vn 1.000000 0.000000 0.000000
s off
g wall_cafe_window
usemtl initialShadingGroup
f 4/1/1 1/2/2 2/3/3 3/28/4
f 1/2/5 4/1/6 5/5/7 6/6/8
f 6/6/9 5/5/10 7/7/11 8/8/12
f 3/4/13 2/27/14 9/9/15 10/10/16
f 10/10/17 9/9/18 11/11/19 12/12/20
f 12/12/21 11/11/22 13/13/23 14/14/24
f 14/19/25 13/20/26 17/21/27 18/22/28
f 13/20/29 15/23/30 19/24/31 17/21/32
f 15/23/33 16/25/34 20/26/35 19/24/36
f 16/25/37 14/19/38 18/22/39 20/26/40
f 18/22/41 17/21/42 21/16/43 22/15/44
f 17/21/45 19/24/46 23/17/47 21/16/48
f 19/24/49 20/26/50 24/18/51 23/17/52
f 20/26/53 18/22/54 22/15/55 24/18/56
