# This file uses centimeters as units for non-parametric coordinates.

mtllib cafe_cup01.mtl
g default
v 2.701107 0.023562 -1.202606
v 1.978447 0.023562 -2.197271
v 0.913682 0.023562 -2.812025
v -0.309057 0.023562 -2.940527
v -1.478367 0.023562 -2.560592
v -2.392049 0.023562 -1.737921
v -2.892117 0.023562 -0.614719
v -2.894960 0.023562 0.603181
v -2.392049 0.023562 1.737932
v -1.481210 0.023562 2.549065
v -0.309068 0.023562 2.940538
v 0.913682 0.023562 2.812025
v 1.978447 0.023562 2.197271
v 2.701107 0.023562 1.202617
v 2.956735 0.023562 0.000011
v 3.772785 16.070732 -1.685518
v 2.759927 16.070732 -3.079609
v 1.267602 16.070732 -3.941193
v -0.446143 16.070732 -4.121308
v -2.084983 16.070732 -3.588824
v -3.365561 16.070732 -2.435801
v -4.066441 16.070732 -0.861573
v -4.066441 16.070732 0.861595
v -3.365561 16.070732 2.435801
v -2.084983 16.070732 3.588847
v -0.446143 16.070732 4.121331
v 1.267602 16.070732 3.941204
v 2.759927 16.070732 3.079620
v 3.772785 16.070732 1.685541
v 4.131059 16.070732 0.000011
v 3.677156 16.070732 -1.642410
v 2.690194 16.070732 -3.000859
v 1.236020 16.070732 -3.840426
v -0.433905 16.070732 -4.015950
v -2.030849 16.070732 -3.497080
v -3.278690 16.070732 -2.373518
v -3.961653 16.070732 -0.839556
v -3.961653 16.070732 0.839579
v -3.278690 16.070732 2.373529
v -2.030849 16.070732 3.497080
v -0.433905 16.070732 4.015950
v 1.236020 16.070732 3.840448
v 2.690194 16.070732 3.000881
v 3.677156 16.070732 1.642444
v 4.026271 16.070732 0.000011
v 2.593927 0.229558 -1.154309
v 1.900289 0.229558 -2.109024
v -2.294677 0.229558 -1.668126
v 0.878283 0.229558 -2.699076
v -0.295348 0.229558 -2.822424
v -1.417692 0.229558 -2.457761
v -2.774674 0.229558 -0.590052
v -2.774674 0.229558 0.590052
v -2.294677 0.229558 1.668126
v -1.417692 0.229558 2.457795
v -0.295348 0.229558 2.822447
v 0.878283 0.229558 2.699076
v 1.900289 0.229558 2.109035
v 2.593927 0.229558 1.154320
v 2.839292 0.229558 0.000011
vt 0.022434 0.901413
vt 0.059370 0.950802
vt 0.113792 0.982223
vt 0.176288 0.990241
vt 0.236054 0.970822
vt 0.282754 0.928774
vt 0.308313 0.871365
vt 0.308313 0.808525
vt 0.282754 0.751117
vt 0.236054 0.709067
vt 0.176289 0.689649
vt 0.113793 0.696071
vt 0.059370 0.727638
vt 0.022434 0.778477
vt 0.009368 0.839945
vt 0.799176 0.008030
vt 0.866170 0.008030
vt 0.866170 0.459103
vt 0.799175 0.459103
vt 0.932937 0.459103
vt 0.003261 0.008030
vt 0.003261 0.459103
vt 0.069442 0.008030
vt 0.069442 0.459103
vt 0.135370 0.008030
vt 0.135370 0.459103
vt 0.201128 0.008030
vt 0.201127 0.459103
vt 0.266193 0.008030
vt 0.266824 0.459103
vt 0.332582 0.008030
vt 0.332582 0.459103
vt 0.398065 0.008030
vt 0.398510 0.459103
vt 0.464691 0.008030
vt 0.464691 0.459103
vt 0.531169 0.008030
vt 0.531169 0.459103
vt 0.597937 0.008030
vt 0.597936 0.459103
vt 0.664931 0.008030
vt 0.664931 0.459103
vt 0.732053 0.008030
vt 0.878960 0.523739
vt 0.916476 0.523739
vt 0.379885 0.552456
vt 0.732053 0.459103
vt 0.866170 0.493827
vt 0.799175 0.493827
vt 0.932937 0.493827
vt 0.003261 0.493827
vt 0.069442 0.493827
vt 0.135370 0.493827
vt 0.201127 0.493827
vt 0.266825 0.493827
vt 0.332582 0.493827
vt 0.398510 0.493827
vt 0.464691 0.493827
vt 0.531169 0.493827
vt 0.597936 0.493827
vt 0.664931 0.493827
vt 0.205417 0.570793
vt 0.230172 0.536720
vt 0.266647 0.515662
vt 0.308533 0.511259
vt 0.348588 0.524273
vt 0.397018 0.590931
vt 0.397018 0.633047
vt 0.379887 0.671523
vt 0.348588 0.699705
vt 0.308533 0.712719
vt 0.266647 0.708316
vt 0.230172 0.687258
vt 0.205417 0.653185
vt 0.196660 0.611989
vt 0.916476 0.987601
vt 0.878960 0.987601
vt 0.953864 0.523739
vt 0.953864 0.987601
vt 0.433268 0.523739
vt 0.433268 0.987601
vt 0.470328 0.523739
vt 0.470328 0.987601
vt 0.507246 0.523739
vt 0.507241 0.987588
vt 0.544069 0.523739
vt 0.544068 0.987601
vt 0.580858 0.523739
vt 0.580857 0.987601
vt 0.617680 0.523739
vt 0.617680 0.987601
vt 0.654598 0.523739
vt 0.654598 0.987601
vt 0.691658 0.523739
vt 0.691658 0.987601
vt 0.728884 0.523739
vt 0.728884 0.987601
vt 0.766271 0.523739
vt 0.766272 0.987601
vt 0.803787 0.523739
vt 0.803787 0.987601
vt 0.841374 0.523739
vt 0.841374 0.987601
vt 0.732053 0.493827
vt 0.991090 0.987601
vt 0.991090 0.523739
vt 0.932937 0.008030
vt 0.999414 0.008030
vt 0.999415 0.459103
vt 0.999415 0.493827
vn 0.898344 -0.181939 -0.399845
vn 0.656401 -0.195269 -0.728702
vn 0.667486 -0.066579 -0.741640
vn 0.911482 -0.066402 -0.405946
vn 0.304077 -0.182406 -0.935022
vn 0.308060 -0.066841 -0.949016
vn -0.103122 -0.147149 -0.983724
vn -0.104584 -0.067143 -0.992247
vn -0.497082 -0.103925 -0.861458
vn -0.499077 -0.067431 -0.863930
vn -0.805958 -0.085530 -0.585761
vn -0.807265 -0.067656 -0.586298
vn -0.970201 -0.125572 -0.207222
vn -0.975729 -0.067713 -0.208251
vn -0.964257 -0.168232 0.204708
vn -0.975856 -0.067769 0.207636
vn -0.793740 -0.192655 0.576940
vn -0.807258 -0.067817 0.586290
vn -0.490530 -0.193455 0.849680
vn -0.498912 -0.067650 0.864008
vn -0.104777 -0.167473 0.980293
vn -0.106500 -0.067335 0.992030
vn 0.306842 -0.125026 0.943513
vn 0.308062 -0.066842 0.949015
vn 0.666898 -0.084352 0.740359
vn 0.667483 -0.066580 0.741642
vn 0.908750 -0.102812 0.404480
vn 0.911480 -0.066402 0.405948
vn 0.989207 -0.146524 0.000000
vn 0.997797 -0.066339 0.000000
vn -0.906497 0.124389 0.403474
vn -0.908691 0.103446 -0.404451
vn -0.996346 0.085413 -0.000000
vn 0.491552 0.180773 -0.851879
vn 0.102346 0.190004 0.976434
vn 0.492868 0.165791 0.854163
vn -0.660126 0.164890 0.732833
vn -0.304212 0.180161 -0.935413
vn -0.662133 0.145808 -0.735065
vn -0.303659 0.189691 0.933707
vn 0.974424 0.087026 0.207181
vn 0.972731 0.104972 -0.206821
vn 0.802496 0.125759 0.583254
vn 0.800135 0.146965 -0.581537
vn 0.102277 0.193266 -0.975801
vn -0.666595 0.084102 0.740660
vn -0.910277 0.083877 0.405414
vn -0.307644 0.084434 0.947748
vn 0.104444 0.084815 0.990908
vn 0.498404 0.085180 0.862750
vn 0.806159 0.085464 0.585494
vn 0.974569 0.085620 0.207088
vn 0.974568 0.085620 -0.207089
vn 0.806160 0.085464 -0.585493
vn 0.498406 0.085180 -0.862749
vn 0.104442 0.084815 -0.990908
vn -0.307643 0.084434 -0.947748
vn -0.666593 0.084102 -0.740662
vn -0.910276 0.083877 -0.405415
vn -0.996483 0.083797 0.000000
s 1
g cafe_cup01
usemtl initialShadingGroup
f 1/16/1 2/17/2 17/18/3 16/19/4
f 2/17/2 3/107/5 18/20/6 17/18/3
f 3/107/5 4/108/7 19/109/8 18/20/6
f 4/21/7 5/23/9 20/24/10 19/22/8
f 5/23/9 6/25/11 21/26/12 20/24/10
f 6/25/11 7/27/13 22/28/14 21/26/12
f 7/27/13 8/29/15 23/30/16 22/28/14
f 8/29/15 9/31/17 24/32/18 23/30/16
f 9/31/17 10/33/19 25/34/20 24/32/18
f 10/33/19 11/35/21 26/36/22 25/34/20
f 11/35/21 12/37/23 27/38/24 26/36/22
f 12/37/23 13/39/25 28/40/26 27/38/24
f 13/39/25 14/41/27 29/42/28 28/40/26
f 14/41/27 15/43/29 30/47/30 29/42/28
f 15/43/29 1/16/1 16/19/4 30/47/30
f 3/3/5 9/9/17 8/8/15
f 8/8/15 4/4/7 3/3/5
f 4/4/7 8/8/15 7/7/13
f 4/4/7 7/7/13 5/5/9
f 5/5/9 7/7/13 6/6/11
f 1/1/1 10/10/19 2/2/2
f 2/2/2 9/9/17 3/3/5
f 9/9/17 2/2/2 10/10/19
f 10/10/19 1/1/1 11/11/21
f 11/11/21 15/15/29 12/12/23
f 14/14/27 13/13/25 12/12/23
f 15/15/29 14/14/27 12/12/23
f 15/15/29 11/11/21 1/1/1
f 46/62/31 59/74/32 60/75/33
f 55/70/34 50/65/35 51/66/36
f 47/63/37 57/72/38 58/73/39
f 57/72/38 47/63/37 49/64/40
f 52/67/41 53/68/42 48/46/43
f 53/68/42 54/69/44 48/46/43
f 58/73/39 46/62/31 47/63/37
f 54/69/44 51/66/36 48/46/43
f 56/71/45 50/65/35 55/70/34
f 56/71/45 49/64/40 50/65/35
f 49/64/40 56/71/45 57/72/38
f 46/62/31 58/73/39 59/74/32
f 51/66/36 54/69/44 55/70/34
f 16/19/4 17/18/3 32/48/46 31/49/47
f 17/18/3 18/20/6 33/50/48 32/48/46
f 18/20/6 19/109/8 34/110/49 33/50/48
f 19/22/8 20/24/10 35/52/50 34/51/49
f 20/24/10 21/26/12 36/53/51 35/52/50
f 21/26/12 22/28/14 37/54/52 36/53/51
f 22/28/14 23/30/16 38/55/53 37/54/52
f 23/30/16 24/32/18 39/56/54 38/55/53
f 24/32/18 25/34/20 40/57/55 39/56/54
f 25/34/20 26/36/22 41/58/56 40/57/55
f 26/36/22 27/38/24 42/59/57 41/58/56
f 27/38/24 28/40/26 43/60/58 42/59/57
f 28/40/26 29/42/28 44/61/59 43/60/58
f 29/42/28 30/47/30 45/104/60 44/61/59
f 30/47/30 16/19/4 31/49/47 45/104/60
f 31/44/47 32/45/46 47/76/37 46/77/31
f 32/45/46 33/78/48 49/79/40 47/76/37
f 33/78/48 34/106/49 50/105/35 49/79/40
f 34/80/49 35/82/50 51/83/36 50/81/35
f 35/82/50 36/84/51 48/85/43 51/83/36
f 36/84/51 37/86/52 52/87/41 48/85/43
f 37/86/52 38/88/53 53/89/42 52/87/41
f 38/88/53 39/90/54 54/91/44 53/89/42
f 39/90/54 40/92/55 55/93/34 54/91/44
f 40/92/55 41/94/56 56/95/45 55/93/34
f 41/94/56 42/96/57 57/97/38 56/95/45
f 42/96/57 43/98/58 58/99/39 57/97/38
f 43/98/58 44/100/59 59/101/32 58/99/39
f 44/100/59 45/102/60 60/103/33 59/101/32
f 45/102/60 31/44/47 46/77/31 60/103/33
