# This file uses meters as units for non-parametric coordinates.

mtllib ceiling_end.mtl
g default
v -0.942200 -5.000000 200.000000
v 400.942200 -5.000000 200.000000
v -0.942200 5.000000 200.000000
v 400.942200 5.000000 200.000000
v -0.942200 5.000000 -0.942200
v 400.942200 5.000000 -0.942200
v -0.942200 -5.000000 -0.942200
v 400.942200 -5.000000 -0.942200
v 14.519730 -5.000000 10.933075
v 385.480286 -5.000000 10.933075
v 385.480286 -5.000000 200.000000
v 14.519730 -5.000000 200.000000
v 14.519730 0.000000 10.933075
v 385.480286 0.000000 10.933075
v 385.480286 0.000000 200.000000
v 14.519730 0.000000 200.000000
v 55.686890 0.000000 50.000000
v 344.313141 0.000000 50.000000
v 344.313141 0.000000 200.000000
v 55.686890 0.000000 200.000000
v 55.686890 50.000000 50.000000
v 344.313141 50.000000 50.000000
v 344.313141 50.000000 200.000000
v 55.686890 50.000000 200.000000
vt 0.310017 1.000000
vt 0.310017 0.000000
vt 0.334630 0.000000
vt 0.334630 1.000000
vt 0.343764 1.000000
vt 0.343764 0.000000
vt 0.368377 0.000000
vt 0.368377 1.000000
vt 0.384807 1.000000
vt 0.384807 0.000000
vt 0.397114 0.000000
vt 0.397114 1.000000
vt 0.410817 1.000000
vt 0.410817 0.000000
vt 0.423123 0.000000
vt 0.423123 1.000000
vt 0.144303 0.511667
vt 0.144303 0.000000
vt 0.284776 0.000000
vt 0.284776 0.511667
vt 0.144303 1.000000
vt 0.144303 0.523359
vt 0.284776 0.523359
vt 0.284776 1.000000
vt 0.626061 0.855319
vt 0.626061 0.140745
vt 1.000000 0.140745
vt 1.000000 0.855319
vt 0.498855 1.000000
vt 0.498855 -0.000000
vt 0.528083 0.042307
vt 0.528083 0.955337
vt 1.000000 -0.000000
vt 1.000000 0.042307
vt 1.000000 1.000000
vt 1.000000 0.955337
vt 0.528083 0.952452
vt 0.528083 0.039422
vt 0.626061 0.140745
vt 0.626061 0.855318
vt 1.000000 0.039422
vt 1.000000 0.140745
vt 1.000000 0.952452
vt 1.000000 0.855318
vt 0.463150 1.000000
vt 0.463150 -0.000000
vt 0.487763 -0.000000
vt 0.487763 1.000000
vt 0.437573 1.000000
vt 0.437573 -0.000000
vt 0.449879 -0.000000
vt 0.449879 1.000000
vt 0.000000 1.000000
vt 0.000000 0.000000
vt 0.144303 0.000000
vt 0.144303 1.000000
vn 0.000000 0.000000 -1.000000
vn 0.000000 0.000000 -1.000000
vn 0.000000 0.000000 -1.000000
vn 0.000000 0.000000 -1.000000
vn 0.000000 -1.000000 0.000000
vn 0.000000 -1.000000 0.000000
vn 0.000000 -1.000000 0.000000
vn 0.000000 -1.000000 0.000000
vn 1.000000 0.000000 0.000000
vn 1.000000 0.000000 0.000000
vn 1.000000 0.000000 0.000000
vn 1.000000 0.000000 0.000000
vn -1.000000 0.000000 0.000000
vn -1.000000 0.000000 0.000000
vn -1.000000 0.000000 0.000000
vn -1.000000 0.000000 0.000000
vn 0.000000 -1.000000 -0.000000
vn 0.000000 -1.000000 -0.000000
vn 0.000000 -1.000000 -0.000000
vn 0.000000 -1.000000 -0.000000
vn 0.000000 -1.000000 0.000000
vn 0.000000 -1.000000 0.000000
vn 0.000000 -1.000000 0.000000
vn 0.000000 -1.000000 0.000000
vn 0.000000 -1.000000 0.000000
vn 0.000000 -1.000000 0.000000
vn 0.000000 -1.000000 0.000000
vn 0.000000 -1.000000 0.000000
vn 0.000000 0.000000 1.000000
vn 0.000000 0.000000 1.000000
vn 0.000000 0.000000 1.000000
vn 0.000000 0.000000 1.000000
vn -1.000000 0.000000 0.000000
vn -1.000000 0.000000 0.000000
vn -1.000000 0.000000 0.000000
vn -1.000000 0.000000 0.000000
vn 1.000000 0.000000 0.000000
vn 1.000000 0.000000 0.000000
vn 1.000000 0.000000 0.000000
vn 1.000000 0.000000 0.000000
vn 0.000000 -1.000000 0.000000
vn 0.000000 -1.000000 0.000000
vn 0.000000 -1.000000 0.000000
vn 0.000000 -1.000000 0.000000
vn 0.000000 -1.000000 0.000000
vn 0.000000 -1.000000 0.000000
vn 0.000000 -1.000000 0.000000
vn 0.000000 -1.000000 0.000000
vn 0.000000 -1.000000 0.000000
vn 0.000000 -1.000000 0.000000
vn 0.000000 -1.000000 0.000000
vn 0.000000 -1.000000 0.000000
vn 0.000000 0.000000 1.000000
vn 0.000000 0.000000 1.000000
vn 0.000000 0.000000 1.000000
vn 0.000000 0.000000 1.000000
vn -1.000000 0.000000 0.000000
vn -1.000000 0.000000 0.000000
vn -1.000000 0.000000 0.000000
vn -1.000000 0.000000 0.000000
vn 1.000000 0.000000 0.000000
vn 1.000000 0.000000 0.000000
vn 1.000000 0.000000 0.000000
vn 1.000000 0.000000 0.000000
s off
g ceiling_end
usemtl initialShadingGroup
f 5/45/1 6/46/2 8/47/3 7/48/4
f 21/25/5 22/26/6 23/27/7 24/28/8
f 2/1/9 8/2/10 6/3/11 4/4/12
f 7/5/13 1/6/14 3/7/15 5/8/16
f 7/29/17 8/30/18 10/31/19 9/32/20
f 8/30/21 2/33/22 11/34/23 10/31/24
f 1/35/25 7/29/26 9/32/27 12/36/28
f 9/49/29 10/50/30 14/51/31 13/52/32
f 10/9/33 11/10/34 15/11/35 14/12/36
f 12/13/37 9/14/38 13/15/39 16/16/40
f 13/37/41 14/38/42 18/39/43 17/40/44
f 14/38/45 15/41/46 19/42/47 18/39/48
f 16/43/49 13/37/50 17/40/51 20/44/52
f 17/53/53 18/54/54 22/55/55 21/56/56
f 18/17/57 19/18/58 23/19/59 22/20/60
f 20/21/61 17/22/62 21/23/63 24/24/64
