# This file uses meters as units for non-parametric coordinates.

mtllib ceiling_bar.mtl
g default
v 199.057755 -5.325211 -15.461914
v -201.522156 -5.325211 -15.461914
v -201.522156 -0.325211 -15.461914
v 199.057755 -0.325211 -15.461914
v -201.501709 -0.325211 -56.629089
v 199.057739 -0.325211 -56.629089
v -201.501709 100.000000 -56.629089
v 199.057739 100.000000 -56.629089
v -201.522156 -5.325211 15.461914
v 199.057755 -5.325211 15.461914
v -201.522156 -0.325211 15.461914
v 199.057755 -0.325211 15.461914
v -201.501740 -0.325211 56.629089
v 199.057755 -0.325211 56.629028
v -201.501740 100.000000 56.629089
v 199.057755 100.000000 56.629028
vt 0.004270 0.989486
vt 0.004270 0.017337
vt 0.030644 0.017337
vt 0.030644 0.989486
vt 0.715557 0.500790
vt 0.715557 0.004593
vt 0.985675 0.004593
vt 0.985675 0.500790
vt 0.447987 0.989486
vt 0.447987 0.017337
vt 0.474361 0.017337
vt 0.474361 0.989486
vt 0.718496 0.990205
vt 0.718496 0.494008
vt 0.988614 0.494008
vt 0.988614 0.990205
vt 0.042719 0.989486
vt 0.042719 0.017337
vt 0.259864 0.017387
vt 0.259864 0.989486
vt 0.434447 0.017337
vt 0.434447 0.989486
vt 0.271332 0.989486
vt 0.271332 0.017337
vt 0.703235 0.017337
vt 0.703235 0.989486
vt 0.486090 0.989486
vt 0.486090 0.017387
vn 0.000000 0.000000 -1.000000
vn 0.000000 0.000000 -1.000000
vn 0.000000 0.000000 -1.000000
vn 0.000000 0.000000 -1.000000
vn 0.000000 -1.000000 0.000000
vn 0.000000 -1.000000 0.000000
vn 0.000000 -1.000000 0.000000
vn 0.000000 -1.000000 0.000000
vn 0.000000 0.000000 -1.000000
vn 0.000000 0.000000 -1.000000
vn 0.000000 0.000000 -1.000000
vn 0.000000 0.000000 -1.000000
vn 0.000000 -1.000000 0.000000
vn 0.000000 -1.000000 0.000000
vn 0.000000 -1.000000 0.000000
vn 0.000000 -1.000000 0.000000
vn 0.000000 0.000000 1.000000
vn 0.000000 0.000000 1.000000
vn 0.000000 0.000000 1.000000
vn 0.000000 0.000000 1.000000
vn 0.000000 -1.000000 -0.000000
vn 0.000000 -1.000000 -0.000000
vn 0.000000 -1.000000 -0.000000
vn 0.000000 -1.000000 -0.000000
vn 0.000000 0.000000 1.000000
vn 0.000000 0.000000 1.000000
vn 0.000000 0.000000 1.000000
vn 0.000000 0.000000 1.000000
s off
g ceiling_bar
usemtl initialShadingGroup
f 1/1/1 2/2/2 3/3/3 4/4/4
f 4/17/5 3/18/6 5/19/7 6/20/8
f 6/5/9 5/6/10 7/7/11 8/8/12
f 2/21/13 1/22/14 10/23/15 9/24/16
f 9/9/17 10/10/18 12/11/19 11/12/20
f 11/25/21 12/26/22 14/27/23 13/28/24
f 13/13/25 14/14/26 16/15/27 15/16/28
