# This file uses meters as units for non-parametric coordinates.

mtllib door_fire_exit.mtl
g default
v 120.345947 0.546622 0.000000
v 0.000000 0.546629 0.000000
v 120.341553 0.568884 10.113037
v -0.004150 0.568884 10.113037
v 120.345947 240.670441 0.000000
v 0.000000 240.670441 0.000000
v 120.341553 240.679550 10.113037
v -0.004150 240.679550 10.113037
v 10.925049 224.643219 0.000000
v 109.411133 224.644180 0.000000
v 10.925049 145.709778 0.000000
v 109.416016 145.710266 0.000000
v 109.411133 220.781693 0.000000
v 10.925049 220.781525 0.000000
v 60.163086 224.643600 0.000000
v 60.174316 145.709976 0.000000
v 22.030029 37.131470 0.000000
v 22.030029 113.692207 0.000000
v 49.080078 113.692192 0.000000
v 49.080078 37.131435 0.000000
v 10.925049 26.078045 0.000000
v 17.797363 119.250412 0.000000
v 17.797363 31.573273 0.000000
v 53.312744 119.250412 0.000000
v 60.174316 26.078133 0.000000
v 53.312744 31.573273 0.000000
v 19.689941 117.232430 2.074219
v 19.689941 33.591320 2.074219
v 51.420166 117.232430 2.074219
v 51.420166 33.591282 2.074219
v 20.137207 115.710243 2.074219
v 20.137207 35.113483 2.074219
v 50.972656 115.710251 2.074219
v 50.972656 35.113464 2.074219
v 22.030029 113.692207 0.691406
v 22.030029 37.131470 0.691406
v 49.080078 113.692192 0.691406
v 49.080078 37.131435 0.691406
v 71.246582 37.131866 0.000000
v 71.246582 113.692581 0.000000
v 98.296387 113.692581 0.000000
v 98.296387 37.131866 0.000000
v 67.013672 119.250778 0.000000
v 67.013672 31.573715 0.000000
v 102.529297 119.250778 0.000000
v 109.416016 26.078138 0.000000
v 102.529297 31.573711 0.000000
v 68.906250 117.232819 2.074219
v 68.906250 33.591717 2.074219
v 100.636719 117.232819 2.074219
v 100.636719 33.591717 2.074219
v 69.353760 115.710625 2.074219
v 69.353760 35.113865 2.074219
v 100.189209 115.710632 2.074219
v 100.189209 35.113865 2.074219
v 71.246582 113.692581 0.691406
v 71.246582 37.131866 0.691406
v 98.296387 113.692581 0.691406
v 98.296387 37.131866 0.691406
v 109.412354 26.122557 10.109131
v 60.163086 26.122671 10.109131
v 10.921143 26.122671 10.109131
v 109.412354 224.687759 10.109131
v 109.412354 220.826050 10.109131
v 109.412354 145.754288 10.109131
v 10.926025 224.688721 10.109131
v 60.174072 224.688156 10.109131
v 10.921143 145.754807 10.109131
v 10.926025 220.826248 10.109131
v 60.163086 145.754501 10.109131
v 98.307129 37.176018 10.109131
v 98.307129 113.736732 10.109131
v 71.257324 113.736732 10.109131
v 71.257324 37.175980 10.109131
v 102.540039 119.294937 10.109131
v 102.540039 31.617809 10.109131
v 67.024414 119.294937 10.109131
v 67.024414 31.617809 10.109131
v 100.647461 117.276970 8.034668
v 100.647461 33.635860 8.034668
v 68.916992 117.276970 8.034668
v 68.916992 33.635822 8.034668
v 100.199951 115.754784 8.034668
v 100.199951 35.158009 8.034668
v 69.364502 115.754784 8.034668
v 69.364502 35.157967 8.034668
v 98.307129 113.736732 9.417725
v 98.307129 37.176018 9.417725
v 71.257324 113.736732 9.417725
v 71.257324 37.175980 9.417725
v 49.090820 37.176434 10.109131
v 49.090820 113.737122 10.109131
v 22.040771 113.737122 10.109131
v 22.040771 37.176434 10.109131
v 53.323486 119.295319 10.109131
v 53.323486 31.618229 10.109131
v 17.808105 119.295319 10.109131
v 17.808105 31.618229 10.109131
v 51.430908 117.277344 8.034668
v 51.430908 33.636234 8.034668
v 19.700684 117.277344 8.034668
v 19.700684 33.636234 8.034668
v 50.983398 115.755157 8.034668
v 50.983398 35.158386 8.034668
v 20.147949 115.755157 8.034668
v 20.147949 35.158386 8.034668
v 49.090820 113.737122 9.417725
v 49.090820 37.176434 9.417725
v 22.040771 113.737122 9.417725
v 22.040771 37.176434 9.417725
v 60.168457 220.781525 0.000000
v 60.168457 224.643219 0.000000
v 60.168457 224.643600 0.000000
v 60.168457 224.644180 0.000000
v 60.168457 220.781693 0.000000
v 60.168457 145.710266 0.000000
v 60.168457 145.709976 0.000000
v 60.168457 145.709778 0.000000
v 60.168457 224.687759 10.109131
v 60.168457 224.688156 10.109131
v 60.168457 224.688721 10.109131
v 60.168457 220.826248 10.109131
v 60.168457 145.754807 10.109131
v 60.168457 145.754501 10.109131
v 60.168457 145.754288 10.109131
v 60.168457 220.826050 10.109131
v 102.695313 212.026672 0.000000
v 102.698975 162.953598 0.000000
v 66.885254 162.953613 0.000000
v 66.885254 212.026657 0.000000
v 17.641357 162.953125 0.000000
v 17.641357 212.026413 0.000000
v 53.452148 212.026413 0.000000
v 53.452148 162.953125 0.000000
v 17.641846 212.071167 10.109131
v 17.638428 162.998138 10.109131
v 53.452148 162.998138 10.109131
v 53.452148 212.071198 10.109131
v 102.695801 162.997635 10.109131
v 102.695801 212.070938 10.109131
v 66.885010 212.070938 10.109131
v 66.885010 162.997635 10.109131
v 101.967529 211.250519 -1.701416
v 101.970947 163.729736 -1.701416
v 67.613037 163.729752 -1.701416
v 67.613037 211.250504 -1.701416
v 18.369141 163.729279 -1.701416
v 18.369141 211.250244 -1.701416
v 52.724365 211.250244 -1.701416
v 52.724365 163.729279 -1.701416
v 18.369629 211.295013 11.810547
v 18.366211 163.774292 11.810547
v 52.724121 163.774292 11.810547
v 52.724121 211.295044 11.810547
v 101.968018 163.773804 11.810547
v 101.968018 211.294785 11.810547
v 67.612793 211.294785 11.810547
v 67.612793 163.773804 11.810547
v 100.360840 208.806427 -1.701416
v 100.363770 166.173798 -1.701416
v 69.219971 166.173813 -1.701416
v 69.219971 208.806412 -1.701416
v 19.976074 166.173355 -1.701416
v 19.976074 208.806183 -1.701416
v 51.117432 208.806183 -1.701416
v 51.117432 166.173340 -1.701416
v 19.976563 208.850983 11.810547
v 19.973389 166.218369 11.810547
v 51.117188 166.218384 11.810547
v 51.117188 208.851013 11.810547
v 100.361084 166.217850 11.810547
v 100.361084 208.850739 11.810547
v 69.219727 208.850739 11.810547
v 69.219727 166.217865 11.810547
v 98.876465 206.909683 0.000000
v 98.879395 168.070587 0.000000
v 70.704346 168.070587 0.000000
v 70.704346 206.909653 0.000000
v 21.460449 168.070175 0.000000
v 21.460449 206.909454 0.000000
v 49.633301 206.909454 0.000000
v 49.633301 168.070160 0.000000
v 21.460938 206.954269 10.109131
v 21.458008 168.115219 10.109131
v 49.632813 168.115219 10.109131
v 49.632813 206.954315 10.109131
v 98.876953 168.114685 10.109131
v 98.876953 206.954010 10.109131
v 70.703857 206.954041 10.109131
v 70.703857 168.114700 10.109131
v 114.810547 130.731857 19.428711
v 114.810547 130.731857 9.439941
v 114.810547 148.351364 19.428711
v 114.810547 148.351364 9.439941
v 108.142578 148.351364 19.428711
v 108.142578 148.351364 9.439941
v 108.142578 130.731857 19.428711
v 108.142578 130.731857 9.439941
v 9.281250 139.196762 16.312744
v 9.281250 140.298874 17.708252
v 9.281250 140.298874 19.433350
v 9.281250 139.196762 20.828857
v 9.281250 137.413528 21.361816
v 9.281250 135.630295 20.828857
v 9.281250 134.528183 19.433350
v 9.281250 134.528183 17.708252
v 9.281250 135.630295 16.312744
v 9.281250 137.413528 15.779785
v 112.319336 139.196762 16.312744
v 112.319336 140.298874 17.708252
v 112.319336 140.298874 19.433350
v 112.319336 139.196762 20.828857
v 112.319336 137.413528 21.361816
v 112.319336 135.630295 20.828857
v 112.319336 134.528183 19.433350
v 112.319336 134.528183 17.708252
v 112.319336 135.630295 16.312744
v 112.319336 137.413528 15.779785
v 9.281250 137.413528 18.570801
v 112.319336 137.413528 18.570801
v 14.645508 130.731857 19.428711
v 14.645508 130.731857 9.439941
v 14.645508 148.351364 19.428711
v 14.645508 148.351364 9.439941
v 7.977539 148.351364 19.428711
v 7.977539 148.351364 9.439941
v 7.977539 130.731857 19.428711
v 7.977539 130.731857 9.439941
vt 0.766122 0.748934
vt 0.406015 0.748934
vt 0.438719 0.669772
vt 0.586086 0.669772
vt 0.733431 0.669772
vt 0.406015 0.005105
vt 0.438719 0.054645
vt 0.438719 0.066608
vt 0.438719 0.299170
vt 0.766122 0.005105
vt 0.733416 0.054642
vt 0.586053 0.054644
vt 0.733431 0.299168
vt 0.733416 0.066608
vt 0.471949 0.398356
vt 0.552889 0.398356
vt 0.552889 0.635530
vt 0.471949 0.635530
vt 0.459282 0.381137
vt 0.459282 0.652749
vt 0.586086 0.299169
vt 0.565554 0.381137
vt 0.565554 0.652749
vt 0.464945 0.387309
vt 0.464945 0.646418
vt 0.559891 0.387309
vt 0.559891 0.646418
vt 0.466285 0.392025
vt 0.466285 0.641702
vt 0.558553 0.392025
vt 0.558553 0.641702
vt 0.471949 0.398330
vt 0.471949 0.635504
vt 0.552889 0.398330
vt 0.552889 0.635504
vt 0.619217 0.398355
vt 0.700158 0.398355
vt 0.700158 0.635529
vt 0.619217 0.635529
vt 0.606552 0.381136
vt 0.606552 0.652747
vt 0.712823 0.381136
vt 0.712823 0.652747
vt 0.612215 0.387308
vt 0.612215 0.646417
vt 0.707160 0.387308
vt 0.707160 0.646417
vt 0.613554 0.392024
vt 0.613554 0.641701
vt 0.705822 0.392024
vt 0.705822 0.641701
vt 0.619217 0.398328
vt 0.619217 0.635502
vt 0.700158 0.398328
vt 0.700158 0.635502
vt 0.586069 0.054644
vt 0.586069 0.054642
vt 0.586069 0.066608
vt 0.586069 0.299168
vt 0.586069 0.299169
vt 0.586069 0.299170
vt 0.586069 0.066608
vt 0.586069 0.054645
vt 0.713331 0.245751
vt 0.713321 0.093730
vt 0.606166 0.245751
vt 0.924345 0.113466
vt 0.924376 0.113466
vt 0.924376 0.113493
vt 0.924376 0.113519
vt 0.924345 0.113519
vt 0.924247 0.113519
vt 0.924345 0.113466
vt 0.924345 0.113466
vt 0.606166 0.093730
vt 0.458816 0.093730
vt 0.458816 0.245753
vt 0.565972 0.093730
vt 0.565972 0.245753
vt 0.711154 0.243412
vt 0.711143 0.096199
vt 0.608345 0.243412
vt 0.608345 0.096199
vt 0.460994 0.096200
vt 0.460994 0.243413
vt 0.563794 0.096200
vt 0.563794 0.243413
vt 0.706344 0.235840
vt 0.706335 0.103770
vt 0.613153 0.235840
vt 0.613153 0.103770
vt 0.465802 0.103771
vt 0.465802 0.235842
vt 0.558985 0.103771
vt 0.558985 0.235842
vt 0.701902 0.229899
vt 0.701893 0.109581
vt 0.617595 0.229899
vt 0.617595 0.109581
vt 0.470243 0.109582
vt 0.470243 0.229901
vt 0.554545 0.109582
vt 0.554545 0.229901
vt 0.400790 0.748934
vt 0.009570 0.748934
vt 0.045086 0.669846
vt 0.205185 0.669845
vt 0.365260 0.669845
vt 0.009570 0.005105
vt 0.045086 0.054753
vt 0.045085 0.066715
vt 0.045086 0.299264
vt 0.400790 0.005105
vt 0.365243 0.054750
vt 0.205148 0.054751
vt 0.365259 0.299262
vt 0.365243 0.066714
vt 0.028373 0.840046
vt 0.028373 0.757667
vt 0.250554 0.757667
vt 0.250553 0.840046
vt 0.067426 0.381227
vt 0.067426 0.652823
vt 0.205185 0.299263
vt 0.182879 0.381227
vt 0.182879 0.652823
vt 0.073578 0.387478
vt 0.073578 0.646572
vt 0.176727 0.387478
vt 0.176727 0.646572
vt 0.075032 0.392193
vt 0.075032 0.641857
vt 0.175272 0.392193
vt 0.175272 0.641857
vt 0.081186 0.398444
vt 0.081186 0.635605
vt 0.169120 0.398444
vt 0.169120 0.635605
vt 0.482817 0.756440
vt 0.482817 0.838819
vt 0.260636 0.838819
vt 0.260636 0.756440
vt 0.227418 0.381225
vt 0.227418 0.652822
vt 0.342872 0.381225
vt 0.342872 0.652822
vt 0.233570 0.387477
vt 0.233570 0.646571
vt 0.336719 0.387477
vt 0.336719 0.646570
vt 0.235025 0.392192
vt 0.235025 0.641855
vt 0.335265 0.392192
vt 0.335265 0.641855
vt 0.241178 0.398443
vt 0.241178 0.635604
vt 0.329112 0.398443
vt 0.329112 0.635604
vt 0.205165 0.054753
vt 0.205165 0.066715
vt 0.205165 0.066714
vt 0.205165 0.054750
vt 0.205165 0.299263
vt 0.205165 0.299262
vt 0.205165 0.299264
vt 0.343424 0.245848
vt 0.343412 0.093835
vt 0.227000 0.245848
vt 0.227000 0.093835
vt 0.066919 0.093835
vt 0.066919 0.245849
vt 0.183333 0.093835
vt 0.183333 0.245849
vt 0.341056 0.243443
vt 0.341045 0.096239
vt 0.229367 0.243444
vt 0.229367 0.096239
vt 0.069284 0.096240
vt 0.069284 0.243445
vt 0.180966 0.096240
vt 0.180966 0.243445
vt 0.335832 0.235873
vt 0.335823 0.103810
vt 0.234590 0.235872
vt 0.234590 0.103810
vt 0.074509 0.103811
vt 0.074509 0.235874
vt 0.175742 0.103811
vt 0.175742 0.235874
vt 0.331007 0.229997
vt 0.330997 0.109686
vt 0.239416 0.229997
vt 0.239416 0.109686
vt 0.079334 0.109686
vt 0.079333 0.229998
vt 0.170918 0.109686
vt 0.170918 0.229998
vt 0.977914 0.382289
vt 0.917285 0.382213
vt 0.916467 0.743319
vt 0.927019 0.382254
vt 0.922728 0.743361
vt 0.936132 0.382335
vt 0.929939 0.743441
vt 0.943727 0.382424
vt 0.938322 0.743530
vt 0.950111 0.382487
vt 0.947425 0.743593
vt 0.956059 0.382500
vt 0.962320 0.382459
vt 0.969531 0.382378
vt 0.996468 0.382213
vt 0.987017 0.382226
vt 0.989703 0.743332
vt 0.995650 0.743319
vt 0.956877 0.743606
vt 0.966611 0.743565
vt 0.975723 0.743484
vt 0.983319 0.743395
vt 0.766696 0.768263
vt 0.788693 0.785637
vt 0.753098 0.813747
vt 0.797096 0.813747
vt 0.739500 0.768263
vt 0.788693 0.841858
vt 0.717503 0.785637
vt 0.766696 0.859232
vt 0.709100 0.813747
vt 0.739500 0.859232
vt 0.717503 0.841858
vt 0.805798 0.966711
vt 0.783801 0.984085
vt 0.770203 0.938600
vt 0.756606 0.984085
vt 0.814201 0.938600
vt 0.734609 0.966711
vt 0.805798 0.910489
vt 0.726206 0.938600
vt 0.783801 0.893116
vt 0.734609 0.910489
vt 0.756606 0.893116
vt 0.924247 0.121202
vt 0.924247 0.133117
vt 0.924247 0.121202
vt 0.978437 0.221449
vt 0.978438 0.373359
vt 0.978438 0.373376
vt 0.978440 0.373376
vt 0.978437 0.373376
vt 0.970701 0.373390
vt 0.970705 0.221449
vt 0.970705 0.373374
vt 0.974570 0.070545
vt 0.995142 0.070545
vt 0.995142 0.124906
vt 0.974570 0.124906
vt 0.974570 0.007837
vt 0.995142 0.007837
vt 0.995142 0.062197
vt 0.974570 0.062197
vt 0.846559 0.604908
vt 0.865832 0.604908
vt 0.865832 0.655835
vt 0.846559 0.655835
vt 0.846560 0.662883
vt 0.865832 0.662883
vt 0.865832 0.713810
vt 0.846560 0.713810
vt 0.878138 0.376163
vt 0.846937 0.376149
vt 0.846937 0.004855
vt 0.878138 0.004868
vt 0.916815 0.006788
vt 0.916815 0.378083
vt 0.885613 0.378096
vt 0.885613 0.006802
vt 0.982838 0.373427
vt 0.982838 0.289972
vt 0.991640 0.289972
vt 0.991640 0.373427
vt 0.990266 0.282535
vt 0.990266 0.199080
vt 0.995815 0.199080
vt 0.995815 0.282535
vt 0.982355 0.276347
vt 0.982355 0.192892
vt 0.988255 0.192892
vt 0.988255 0.276347
vt 0.973177 0.214849
vt 0.973177 0.131394
vt 0.978095 0.131394
vt 0.978095 0.214849
vt 0.906245 0.727564
vt 0.906245 0.808994
vt 0.877027 0.809001
vt 0.877027 0.727566
vt 0.871620 0.726624
vt 0.871620 0.808054
vt 0.842401 0.808052
vt 0.842401 0.726626
vt 0.878229 0.391782
vt 0.878229 0.473218
vt 0.849010 0.473219
vt 0.849010 0.391789
vt 0.912651 0.388795
vt 0.912651 0.470222
vt 0.883433 0.470224
vt 0.883433 0.388793
vt 0.866235 0.990770
vt 0.866235 0.961899
vt 0.885508 0.961899
vt 0.885508 0.990770
vt 0.889788 0.990771
vt 0.889788 0.961900
vt 0.909061 0.961900
vt 0.909061 0.990771
vt 0.864285 0.956507
vt 0.864285 0.927636
vt 0.883558 0.927636
vt 0.883558 0.956507
vt 0.890699 0.956392
vt 0.890699 0.927521
vt 0.909973 0.927521
vt 0.909973 0.956392
vt 0.802718 0.747655
vt 0.771517 0.747586
vt 0.771517 0.006790
vt 0.802718 0.006818
vt 0.808260 0.006858
vt 0.839461 0.006790
vt 0.839461 0.747627
vt 0.808260 0.747655
vt 0.940314 0.378367
vt 0.940314 0.142160
vt 0.945208 0.142160
vt 0.945208 0.378367
vt 0.922453 0.376433
vt 0.922453 0.140226
vt 0.928260 0.140226
vt 0.928260 0.376433
vt 0.949819 0.376433
vt 0.949819 0.140226
vt 0.955041 0.140226
vt 0.955041 0.376433
vt 0.959032 0.376433
vt 0.959032 0.140226
vt 0.965166 0.140226
vt 0.965166 0.376433
vt 0.967081 0.016596
vt 0.967081 0.136424
vt 0.935893 0.136285
vt 0.935893 0.016458
vt 0.871330 0.812743
vt 0.871330 0.925002
vt 0.842112 0.925132
vt 0.842112 0.812873
vt 0.907533 0.479864
vt 0.907533 0.592122
vt 0.878315 0.591995
vt 0.878315 0.479736
vt 0.903481 0.604074
vt 0.903481 0.716333
vt 0.874263 0.716461
vt 0.874263 0.604202
vt 0.845704 0.482334
vt 0.874575 0.482334
vt 0.874575 0.533261
vt 0.845704 0.533261
vt 0.845704 0.540309
vt 0.874575 0.540309
vt 0.874575 0.591236
vt 0.845704 0.591236
vt 0.877459 0.819947
vt 0.906330 0.819947
vt 0.906330 0.870874
vt 0.877459 0.870874
vt 0.805874 0.845346
vt 0.834745 0.845346
vt 0.834745 0.896273
vt 0.805874 0.896273
vt 0.933961 0.222815
vt 0.933958 0.379763
vt 0.933958 0.222834
vn 0.000000 -0.999998 0.002201
vn 0.000000 -0.999998 0.002201
vn 0.000000 -0.999998 0.002201
vn -0.000000 -0.999998 0.002201
vn -0.000000 -0.999998 0.002201
vn -0.000000 -0.999998 0.002201
vn 0.000000 1.000000 -0.000899
vn 0.000000 1.000000 -0.000899
vn 0.000000 1.000000 -0.000899
vn 0.000000 1.000000 -0.000905
vn 0.000000 1.000000 -0.000905
vn 0.000000 1.000000 -0.000905
vn -1.000000 0.000000 -0.000410
vn -1.000000 0.000000 -0.000410
vn -1.000000 0.000000 -0.000410
vn -1.000000 0.000000 -0.000410
vn -1.000000 0.000000 -0.000410
vn -1.000000 0.000000 -0.000410
vn 1.000000 0.000000 0.000435
vn 1.000000 0.000000 0.000435
vn 1.000000 0.000000 0.000435
vn 1.000000 0.000000 0.000435
vn 1.000000 0.000000 0.000435
vn 1.000000 0.000000 0.000435
vn 0.000000 0.000000 -1.000000
vn 0.000000 0.000000 -1.000000
vn 0.000000 0.000000 -1.000000
vn 0.000000 0.000000 -1.000000
vn 0.000000 0.000000 -1.000000
vn 0.000000 0.000000 -1.000000
vn 0.000000 0.000000 -1.000000
vn 0.000000 0.000000 -1.000000
vn 0.000000 0.000000 -1.000000
vn 0.000000 0.000000 -1.000000
vn 0.000000 0.000000 -1.000000
vn 0.000000 0.000000 -1.000000
vn 0.000000 0.000000 -1.000000
vn 0.000000 0.000000 -1.000000
vn 0.000000 0.000000 -1.000000
vn 0.000000 0.000000 -1.000000
vn 0.000000 0.000000 -1.000000
vn 0.000000 0.000000 -1.000000
vn 0.000000 0.000000 -1.000000
vn 0.000000 0.000000 -1.000000
vn 0.000000 0.000000 -1.000000
vn 0.000000 0.000000 -1.000000
vn 0.000000 0.000000 -1.000000
vn 0.000000 0.000000 -1.000000
vn 0.000000 0.000000 -1.000000
vn 0.000000 0.000000 -1.000000
vn 0.000000 0.000000 -1.000000
vn 0.000000 0.000000 -1.000000
vn 0.000000 0.000000 -1.000000
vn 0.000000 0.000000 -1.000000
vn 0.000000 0.000000 -1.000000
vn 0.000000 0.000000 -1.000000
vn 0.000000 0.000000 -1.000000
vn 0.000000 0.000000 -1.000000
vn 0.000000 0.000000 -1.000000
vn 0.000000 0.000000 -1.000000
vn 0.000000 0.000000 -1.000000
vn 0.000000 0.000000 -1.000000
vn 0.000000 0.000000 -1.000000
vn 0.000000 0.000000 -1.000000
vn 0.000000 0.000000 -1.000000
vn 0.000000 0.000000 -1.000000
vn 0.000000 0.000000 -1.000000
vn 0.000000 0.000000 -1.000000
vn 0.000000 0.000000 -1.000000
vn 0.000000 0.000000 -1.000000
vn 0.000000 0.000000 -1.000000
vn 0.000000 0.000000 -1.000000
vn 0.000000 0.000000 -1.000000
vn 0.000000 0.000000 -1.000000
vn 0.000000 0.000000 -1.000000
vn 0.000000 0.000000 -1.000000
vn 0.000000 0.000000 -1.000000
vn 0.000000 0.000000 -1.000000
vn 0.000000 0.000000 -1.000000
vn 0.000000 0.000000 -1.000000
vn 0.000000 0.000000 -1.000000
vn 0.000000 0.000000 -1.000000
vn 0.000000 0.000000 -1.000000
vn 0.000000 0.000000 -1.000000
vn 0.000000 0.000000 -1.000000
vn 0.000000 0.000000 -1.000000
vn 0.000000 0.000000 -1.000000
vn 0.000000 0.000000 -1.000000
vn 0.000000 0.000000 -1.000000
vn 0.000000 0.000000 -1.000000
vn 0.000000 0.000000 -1.000000
vn 0.000000 0.000000 -1.000000
vn 0.000000 0.000000 -1.000000
vn 0.000000 0.000000 -1.000000
vn 0.000000 0.000000 -1.000000
vn 0.000000 0.000000 -1.000000
vn 0.738711 0.000000 -0.674022
vn 0.738711 0.000000 -0.674022
vn 0.738711 0.000000 -0.674022
vn 0.738711 0.000000 -0.674022
vn 0.738711 0.000000 -0.674022
vn 0.738711 0.000000 -0.674022
vn 0.000000 -0.716761 -0.697319
vn 0.000000 -0.716761 -0.697319
vn 0.000000 -0.716761 -0.697319
vn 0.000000 -0.716753 -0.697328
vn 0.000000 -0.716753 -0.697328
vn 0.000000 -0.716753 -0.697328
vn -0.738711 0.000000 -0.674022
vn -0.738711 0.000000 -0.674022
vn -0.738711 0.000000 -0.674022
vn -0.738711 0.000000 -0.674022
vn -0.738711 0.000000 -0.674022
vn -0.738711 0.000000 -0.674022
vn 0.000000 0.716744 -0.697336
vn 0.000000 0.716744 -0.697336
vn 0.000000 0.716744 -0.697336
vn 0.000001 0.716753 -0.697328
vn 0.000001 0.716753 -0.697328
vn 0.000001 0.716753 -0.697328
vn 0.000000 0.000000 -1.000000
vn 0.000000 0.000000 -1.000000
vn 0.000000 0.000000 -1.000000
vn 0.000000 0.000000 -1.000000
vn 0.000000 0.000000 -1.000000
vn 0.000000 0.000000 -1.000000
vn 0.000000 0.000000 -1.000000
vn 0.000000 0.000000 -1.000000
vn 0.000000 0.000000 -1.000000
vn 0.000000 0.000000 -1.000000
vn 0.000000 0.000000 -1.000000
vn 0.000000 0.000000 -1.000000
vn 0.000000 0.000000 -1.000000
vn 0.000000 0.000000 -1.000000
vn 0.000000 0.000000 -1.000000
vn 0.000000 0.000000 -1.000000
vn 0.000000 0.000000 -1.000000
vn 0.000000 0.000000 -1.000000
vn 0.000000 0.000000 -1.000000
vn 0.000000 0.000000 -1.000000
vn 0.000000 0.000000 -1.000000
vn 0.000000 0.000000 -1.000000
vn 0.000000 0.000000 -1.000000
vn 0.000000 0.000000 -1.000000
vn -0.589904 0.000000 -0.807473
vn -0.589904 0.000000 -0.807473
vn -0.589904 0.000000 -0.807473
vn -0.589904 0.000000 -0.807473
vn -0.589904 0.000000 -0.807473
vn -0.589904 0.000000 -0.807473
vn -0.000000 0.565249 -0.824920
vn -0.000000 0.565249 -0.824920
vn -0.000000 0.565249 -0.824920
vn 0.000000 0.565259 -0.824914
vn 0.000000 0.565259 -0.824914
vn 0.000000 0.565259 -0.824914
vn 0.589954 0.000000 -0.807437
vn 0.589954 0.000000 -0.807437
vn 0.589954 0.000000 -0.807437
vn 0.589954 0.000000 -0.807437
vn 0.589954 0.000000 -0.807437
vn 0.589954 0.000000 -0.807437
vn -0.000000 -0.565262 -0.824911
vn -0.000000 -0.565262 -0.824911
vn -0.000000 -0.565262 -0.824911
vn -0.000001 -0.565268 -0.824908
vn -0.000001 -0.565267 -0.824908
vn -0.000001 -0.565267 -0.824908
vn -1.000000 0.000000 0.000000
vn -1.000000 0.000000 0.000000
vn -1.000000 0.000000 0.000000
vn -1.000000 0.000000 0.000000
vn -1.000000 0.000000 0.000000
vn -1.000000 0.000000 0.000000
vn 0.000001 1.000000 0.000000
vn 0.000001 1.000000 0.000000
vn 0.000001 1.000000 0.000000
vn 0.000001 1.000000 0.000000
vn 0.000001 1.000000 0.000000
vn 0.000001 1.000000 0.000000
vn 1.000000 0.000000 0.000000
vn 1.000000 0.000000 0.000000
vn 1.000000 0.000000 0.000000
vn 1.000000 0.000000 0.000000
vn 1.000000 0.000000 0.000000
vn 1.000000 0.000000 0.000000
vn -0.000001 -1.000000 0.000000
vn -0.000001 -1.000000 0.000000
vn -0.000001 -1.000000 0.000000
vn -0.000001 -1.000000 0.000000
vn -0.000001 -1.000000 0.000000
vn -0.000001 -1.000000 0.000000
vn 0.000000 0.000000 -1.000000
vn 0.000000 0.000000 -1.000000
vn 0.000000 0.000000 -1.000000
vn 0.000000 0.000000 -1.000000
vn 0.000000 0.000000 -1.000000
vn 0.000000 0.000000 -1.000000
vn 0.000000 0.000000 -1.000000
vn 0.000000 0.000000 -1.000000
vn 0.000000 0.000000 -1.000000
vn 0.000000 0.000000 -1.000000
vn 0.000000 0.000000 -1.000000
vn 0.000000 0.000000 -1.000000
vn 0.000000 0.000000 -1.000000
vn 0.000000 0.000000 -1.000000
vn 0.000000 0.000000 -1.000000
vn 0.000000 0.000000 -1.000000
vn 0.000000 0.000000 -1.000000
vn 0.000000 0.000000 -1.000000
vn 0.000000 0.000000 -1.000000
vn 0.000000 0.000000 -1.000000
vn 0.000000 0.000000 -1.000000
vn 0.000000 0.000000 -1.000000
vn 0.000000 0.000000 -1.000000
vn 0.000000 0.000000 -1.000000
vn 0.000000 0.000000 -1.000000
vn 0.000000 0.000000 -1.000000
vn 0.000000 0.000000 -1.000000
vn 0.000000 0.000000 -1.000000
vn 0.000000 0.000000 -1.000000
vn 0.000000 0.000000 -1.000000
vn 0.738711 0.000000 -0.674022
vn 0.738711 0.000000 -0.674022
vn 0.738711 0.000000 -0.674022
vn 0.738711 0.000000 -0.674022
vn 0.738711 0.000000 -0.674022
vn 0.738711 0.000000 -0.674022
vn 0.000000 -0.716756 -0.697324
vn 0.000000 -0.716756 -0.697324
vn 0.000000 -0.716756 -0.697324
vn 0.000000 -0.716761 -0.697319
vn 0.000000 -0.716761 -0.697319
vn 0.000000 -0.716761 -0.697319
vn -0.738711 0.000000 -0.674022
vn -0.738711 0.000000 -0.674022
vn -0.738711 0.000000 -0.674022
vn -0.738711 0.000000 -0.674022
vn -0.738711 0.000000 -0.674022
vn -0.738711 0.000000 -0.674022
vn 0.000000 0.716753 -0.697327
vn 0.000000 0.716753 -0.697327
vn 0.000000 0.716753 -0.697327
vn 0.000000 0.716754 -0.697326
vn 0.000000 0.716754 -0.697326
vn 0.000000 0.716754 -0.697326
vn 0.000001 0.000000 -1.000000
vn 0.000001 0.000000 -1.000000
vn 0.000001 0.000000 -1.000000
vn 0.000000 0.000000 -1.000000
vn 0.000000 0.000000 -1.000000
vn 0.000000 0.000000 -1.000000
vn 0.000000 0.000000 -1.000000
vn 0.000000 0.000000 -1.000000
vn 0.000000 0.000000 -1.000000
vn -0.000000 0.000000 -1.000000
vn -0.000000 0.000000 -1.000000
vn -0.000000 0.000000 -1.000000
vn -0.000002 0.000000 -1.000000
vn -0.000002 0.000000 -1.000000
vn -0.000002 0.000000 -1.000000
vn 0.000000 0.000000 -1.000000
vn 0.000000 0.000000 -1.000000
vn 0.000000 0.000000 -1.000000
vn 0.000000 0.000000 -1.000000
vn 0.000000 0.000000 -1.000000
vn 0.000000 0.000000 -1.000000
vn 0.000000 0.000000 -1.000000
vn 0.000000 0.000000 -1.000000
vn 0.000000 0.000000 -1.000000
vn -0.589904 0.000000 -0.807473
vn -0.589904 0.000000 -0.807473
vn -0.589904 0.000000 -0.807473
vn -0.589904 0.000000 -0.807473
vn -0.589904 0.000000 -0.807473
vn -0.589904 0.000000 -0.807473
vn -0.000000 0.565252 -0.824919
vn -0.000000 0.565252 -0.824919
vn -0.000000 0.565252 -0.824919
vn 0.000000 0.565252 -0.824918
vn 0.000000 0.565252 -0.824918
vn 0.000000 0.565252 -0.824918
vn 0.589904 0.000000 -0.807473
vn 0.589904 0.000000 -0.807473
vn 0.589904 0.000000 -0.807473
vn 0.589904 0.000000 -0.807473
vn 0.589904 0.000000 -0.807473
vn 0.589904 0.000000 -0.807473
vn 0.000000 -0.565262 -0.824911
vn 0.000000 -0.565262 -0.824911
vn 0.000000 -0.565262 -0.824911
vn 0.000000 -0.565261 -0.824913
vn 0.000000 -0.565260 -0.824913
vn 0.000000 -0.565260 -0.824912
vn -1.000000 0.000000 0.000000
vn -1.000000 0.000000 0.000000
vn -1.000000 0.000000 0.000000
vn -1.000000 0.000000 0.000000
vn -1.000000 0.000000 0.000000
vn -1.000000 0.000000 0.000000
vn 0.000000 1.000000 0.000000
vn 0.000000 1.000000 0.000000
vn 0.000000 1.000000 0.000000
vn 0.000000 1.000000 0.000000
vn 0.000000 1.000000 0.000000
vn 0.000000 1.000000 0.000000
vn 1.000000 0.000000 0.000000
vn 1.000000 0.000000 0.000000
vn 1.000000 0.000000 0.000000
vn 1.000000 0.000000 0.000000
vn 1.000000 0.000000 0.000000
vn 1.000000 0.000000 0.000000
vn 0.000000 -1.000000 0.000000
vn 0.000000 -1.000000 0.000000
vn 0.000000 -1.000000 0.000000
vn 0.000000 -1.000000 0.000000
vn 0.000000 -1.000000 0.000000
vn 0.000000 -1.000000 0.000000
vn 0.000000 0.000153 1.000000
vn 0.000000 0.000153 1.000000
vn 0.000000 0.000153 1.000000
vn 0.000000 0.000153 1.000000
vn 0.000000 0.000153 1.000000
vn 0.000000 0.000153 1.000000
vn 0.000000 0.000153 1.000000
vn 0.000000 0.000153 1.000000
vn 0.000000 0.000153 1.000000
vn -0.000357 0.000000 1.000000
vn -0.000357 0.000000 1.000000
vn -0.000357 0.000000 1.000000
vn -0.000347 0.000000 1.000000
vn -0.000347 0.000000 1.000000
vn -0.000347 0.000000 1.000000
vn -0.000358 0.000000 1.000000
vn -0.000358 0.000000 1.000000
vn -0.000358 0.000000 1.000000
vn -0.000357 0.000000 1.000000
vn -0.000357 0.000000 1.000000
vn -0.000357 0.000000 1.000000
vn 0.000000 -0.000244 1.000000
vn 0.000000 -0.000244 1.000000
vn 0.000000 -0.000244 1.000000
vn 0.000000 -0.000244 1.000000
vn 0.000000 -0.000244 1.000000
vn 0.000000 -0.000244 1.000000
vn 0.000000 -0.000244 1.000000
vn 0.000000 -0.000244 1.000000
vn 0.000000 -0.000244 1.000000
vn 0.000358 0.000000 1.000000
vn 0.000358 0.000000 1.000000
vn 0.000358 0.000000 1.000000
vn 0.000357 0.000000 1.000000
vn 0.000357 0.000000 1.000000
vn 0.000357 0.000000 1.000000
vn 0.000357 -0.000000 1.000000
vn 0.000357 -0.000000 1.000000
vn 0.000357 -0.000000 1.000000
vn 0.000358 0.000000 1.000000
vn 0.000358 0.000000 1.000000
vn 0.000358 0.000000 1.000000
vn 0.000000 0.000000 1.000000
vn 0.000000 0.000000 1.000000
vn 0.000000 0.000000 1.000000
vn 0.000000 0.000000 1.000000
vn 0.000000 0.000000 1.000000
vn 0.000000 0.000000 1.000000
vn 0.000000 0.000000 1.000000
vn 0.000000 0.000000 1.000000
vn 0.000000 0.000000 1.000000
vn 0.000000 0.000000 1.000000
vn 0.000000 0.000000 1.000000
vn 0.000000 0.000000 1.000000
vn -0.000000 0.000000 1.000000
vn -0.000000 0.000000 1.000000
vn -0.000000 0.000000 1.000000
vn 0.000000 0.000000 1.000000
vn 0.000000 0.000000 1.000000
vn 0.000000 0.000000 1.000000
vn 0.000000 0.000000 1.000000
vn 0.000000 0.000000 1.000000
vn 0.000000 0.000000 1.000000
vn 0.000000 0.000000 1.000000
vn 0.000000 0.000000 1.000000
vn 0.000000 0.000000 1.000000
vn 0.000000 0.000000 1.000000
vn 0.000000 0.000000 1.000000
vn 0.000000 0.000000 1.000000
vn 0.000000 0.000000 1.000000
vn 0.000000 0.000000 1.000000
vn 0.000000 0.000000 1.000000
vn -0.738751 0.000000 0.673979
vn -0.738751 0.000000 0.673979
vn -0.738751 0.000000 0.673979
vn -0.738751 0.000000 0.673979
vn -0.738751 0.000000 0.673979
vn -0.738751 0.000000 0.673979
vn 0.000000 -0.716797 0.697282
vn 0.000000 -0.716797 0.697282
vn 0.000000 -0.716797 0.697282
vn 0.000000 -0.716802 0.697277
vn 0.000000 -0.716802 0.697277
vn 0.000000 -0.716802 0.697277
vn 0.738751 0.000000 0.673979
vn 0.738751 0.000000 0.673979
vn 0.738751 0.000000 0.673979
vn 0.738751 0.000000 0.673979
vn 0.738751 0.000000 0.673979
vn 0.738751 0.000000 0.673979
vn 0.000000 0.716787 0.697292
vn 0.000000 0.716787 0.697292
vn 0.000000 0.716787 0.697292
vn -0.000001 0.716792 0.697287
vn -0.000001 0.716792 0.697287
vn -0.000001 0.716792 0.697287
vn 0.000003 0.000000 1.000000
vn 0.000003 0.000000 1.000000
vn 0.000003 0.000000 1.000000
vn -0.000003 0.000000 1.000000
vn -0.000003 0.000000 1.000000
vn -0.000003 0.000000 1.000000
vn 0.000000 0.000000 1.000000
vn 0.000000 0.000000 1.000000
vn 0.000000 0.000000 1.000000
vn 0.000000 0.000000 1.000000
vn 0.000000 0.000000 1.000000
vn 0.000000 0.000000 1.000000
vn -0.000003 0.000000 1.000000
vn -0.000003 0.000000 1.000000
vn -0.000003 0.000000 1.000000
vn 0.000000 0.000000 1.000000
vn 0.000000 0.000000 1.000000
vn 0.000000 0.000000 1.000000
vn 0.000000 0.000000 1.000000
vn 0.000000 0.000000 1.000000
vn 0.000000 0.000000 1.000000
vn 0.000000 0.000000 1.000000
vn 0.000000 0.000000 1.000000
vn 0.000000 0.000000 1.000000
vn 0.589972 0.000000 0.807423
vn 0.589972 0.000000 0.807423
vn 0.589972 0.000000 0.807423
vn 0.589972 0.000000 0.807424
vn 0.589972 0.000000 0.807424
vn 0.589972 0.000000 0.807424
vn 0.000000 0.565320 0.824872
vn 0.000000 0.565320 0.824872
vn 0.000000 0.565320 0.824872
vn 0.000000 0.565320 0.824872
vn 0.000000 0.565320 0.824872
vn 0.000000 0.565320 0.824872
vn -0.589972 0.000000 0.807424
vn -0.589972 0.000000 0.807424
vn -0.589972 0.000000 0.807424
vn -0.589972 0.000000 0.807424
vn -0.589972 0.000000 0.807424
vn -0.589972 0.000000 0.807424
vn 0.000001 -0.565327 0.824867
vn 0.000001 -0.565327 0.824867
vn 0.000001 -0.565327 0.824867
vn 0.000001 -0.565329 0.824866
vn 0.000001 -0.565329 0.824866
vn 0.000001 -0.565329 0.824866
vn 1.000000 0.000000 0.000000
vn 1.000000 0.000000 0.000000
vn 1.000000 0.000000 0.000000
vn 1.000000 0.000000 0.000000
vn 1.000000 0.000000 0.000000
vn 1.000000 0.000000 0.000000
vn 0.000000 1.000000 0.000000
vn 0.000000 1.000000 0.000000
vn 0.000000 1.000000 0.000000
vn 0.000000 1.000000 0.000000
vn 0.000000 1.000000 0.000000
vn 0.000000 1.000000 0.000000
vn -1.000000 0.000000 0.000000
vn -1.000000 0.000000 0.000000
vn -1.000000 0.000000 0.000000
vn -1.000000 0.000000 0.000000
vn -1.000000 0.000000 0.000000
vn -1.000000 0.000000 0.000000
vn 0.000001 -1.000000 0.000000
vn 0.000001 -1.000000 0.000000
vn 0.000001 -1.000000 0.000000
vn 0.000001 -1.000000 0.000000
vn 0.000001 -1.000000 0.000000
vn 0.000001 -1.000000 0.000000
vn 0.000000 0.000000 1.000000
vn 0.000000 0.000000 1.000000
vn 0.000000 0.000000 1.000000
vn 0.000000 0.000000 1.000000
vn 0.000000 0.000000 1.000000
vn 0.000000 0.000000 1.000000
vn 0.000000 0.000000 1.000000
vn 0.000000 0.000000 1.000000
vn 0.000000 0.000000 1.000000
vn 0.000000 0.000000 1.000000
vn 0.000000 0.000000 1.000000
vn 0.000000 0.000000 1.000000
vn 0.000000 0.000000 1.000000
vn 0.000000 0.000000 1.000000
vn 0.000000 0.000000 1.000000
vn 0.000000 0.000000 1.000000
vn 0.000000 0.000000 1.000000
vn 0.000000 0.000000 1.000000
vn 0.000000 0.000000 1.000000
vn 0.000000 0.000000 1.000000
vn 0.000000 0.000000 1.000000
vn 0.000000 0.000000 1.000000
vn 0.000000 0.000000 1.000000
vn 0.000000 0.000000 1.000000
vn 0.000000 0.000000 1.000000
vn 0.000000 0.000000 1.000000
vn 0.000000 0.000000 1.000000
vn 0.000000 0.000000 1.000000
vn 0.000000 0.000000 1.000000
vn 0.000000 0.000000 1.000000
vn -0.738751 0.000000 0.673979
vn -0.738751 0.000000 0.673979
vn -0.738751 0.000000 0.673979
vn -0.738751 0.000000 0.673979
vn -0.738751 0.000000 0.673979
vn -0.738751 0.000000 0.673979
vn 0.000000 -0.716797 0.697282
vn 0.000000 -0.716797 0.697282
vn 0.000000 -0.716797 0.697282
vn 0.000000 -0.716802 0.697277
vn 0.000000 -0.716802 0.697277
vn 0.000000 -0.716802 0.697277
vn 0.738751 0.000000 0.673979
vn 0.738751 0.000000 0.673979
vn 0.738751 0.000000 0.673979
vn 0.738751 0.000000 0.673979
vn 0.738751 0.000000 0.673979
vn 0.738751 0.000000 0.673979
vn 0.000000 0.716794 0.697285
vn 0.000000 0.716794 0.697285
vn 0.000000 0.716794 0.697285
vn 0.000000 0.716792 0.697287
vn 0.000000 0.716792 0.697287
vn 0.000000 0.716792 0.697287
vn 0.000003 0.000000 1.000000
vn 0.000003 0.000000 1.000000
vn 0.000003 0.000000 1.000000
vn -0.000003 0.000000 1.000000
vn -0.000003 0.000000 1.000000
vn -0.000003 0.000000 1.000000
vn 0.000000 0.000000 1.000000
vn 0.000000 0.000000 1.000000
vn 0.000000 0.000000 1.000000
vn 0.000000 0.000000 1.000000
vn 0.000000 0.000000 1.000000
vn 0.000000 0.000000 1.000000
vn 0.000000 0.000000 1.000000
vn 0.000000 0.000000 1.000000
vn 0.000000 0.000000 1.000000
vn 0.000000 0.000000 1.000000
vn 0.000000 0.000000 1.000000
vn 0.000000 0.000000 1.000000
vn 0.000000 0.000000 1.000000
vn 0.000000 0.000000 1.000000
vn 0.000000 0.000000 1.000000
vn 0.000000 0.000000 1.000000
vn 0.000000 0.000000 1.000000
vn 0.000000 0.000000 1.000000
vn 0.590022 0.000000 0.807387
vn 0.590022 0.000000 0.807387
vn 0.590022 0.000000 0.807387
vn 0.590022 0.000000 0.807387
vn 0.590022 0.000000 0.807388
vn 0.590022 0.000000 0.807387
vn 0.000000 0.565323 0.824870
vn 0.000000 0.565323 0.824870
vn 0.000000 0.565323 0.824870
vn 0.000000 0.565323 0.824869
vn 0.000000 0.565323 0.824869
vn 0.000000 0.565323 0.824869
vn -0.589972 0.000000 0.807424
vn -0.589972 0.000000 0.807424
vn -0.589972 0.000000 0.807424
vn -0.589972 0.000000 0.807423
vn -0.589972 0.000000 0.807423
vn -0.589972 0.000000 0.807423
vn 0.000000 -0.565320 0.824871
vn 0.000000 -0.565320 0.824871
vn 0.000000 -0.565320 0.824871
vn 0.000000 -0.565322 0.824871
vn 0.000000 -0.565322 0.824871
vn 0.000000 -0.565322 0.824871
vn 1.000000 0.000000 0.000000
vn 1.000000 0.000000 0.000000
vn 1.000000 0.000000 0.000000
vn 1.000000 0.000000 0.000000
vn 1.000000 0.000000 0.000000
vn 1.000000 0.000000 0.000000
vn 0.000000 1.000000 0.000000
vn 0.000000 1.000000 0.000000
vn 0.000000 1.000000 0.000000
vn 0.000000 1.000000 0.000000
vn 0.000000 1.000000 0.000000
vn 0.000000 1.000000 0.000000
vn -1.000000 0.000000 0.000000
vn -1.000000 0.000000 0.000000
vn -1.000000 0.000000 0.000000
vn -1.000000 0.000000 0.000000
vn -1.000000 0.000000 0.000000
vn -1.000000 0.000000 0.000000
vn 0.000000 -1.000000 0.000000
vn 0.000000 -1.000000 0.000000
vn 0.000000 -1.000000 0.000000
vn 0.000000 -1.000000 0.000000
vn 0.000000 -1.000000 0.000000
vn 0.000000 -1.000000 0.000000
vn 0.000000 0.000000 0.000000
vn 0.000000 0.000000 0.000000
vn 0.000000 0.000000 0.000000
vn 0.000000 0.000000 0.000000
vn 0.000000 0.000000 0.000000
vn 0.000000 0.000000 0.000000
vn 0.000000 0.000000 0.000000
vn 0.000000 0.000000 0.000000
vn 0.000000 0.000000 0.000000
vn 0.000000 0.000000 0.000000
vn 0.000000 0.000000 0.000000
vn 0.000000 0.000000 0.000000
vn 0.000000 0.000000 0.000000
vn 0.000000 0.000000 0.000000
vn 0.000000 0.000000 0.000000
vn 0.000000 0.000000 0.000000
vn 0.000000 0.000000 0.000000
vn 0.000000 0.000000 0.000000
vn 1.000000 0.000000 0.000000
vn 0.000000 0.000000 0.000000
vn 0.000000 0.000000 0.000000
vn 0.000000 0.000000 0.000000
vn 1.000000 0.000000 0.000000
vn 0.000000 0.000000 0.000000
vn -1.000000 0.000000 0.000000
vn -0.000000 0.000000 0.000000
vn -0.000000 0.000000 0.000000
vn 0.000000 0.000000 0.000000
vn 0.000000 0.000000 0.000000
vn 0.000000 0.000000 0.000000
vn 0.000000 0.000000 0.000000
vn 0.000000 0.000000 0.000000
vn 0.000000 0.000000 0.000000
vn 0.000000 0.000000 0.000000
vn 0.000000 0.000000 0.000000
vn 0.000000 0.000000 0.000000
vn 0.000000 0.000000 -1.000000
vn 0.000000 0.000000 -1.000000
vn 0.000000 0.000000 -1.000000
vn 0.000000 0.000000 -1.000000
vn 0.000000 0.000000 -1.000000
vn 0.000000 0.000000 -1.000000
vn 0.000000 0.000000 0.000000
vn 0.000000 0.000000 0.000000
vn 0.000000 0.000000 0.000000
vn 0.000000 0.000000 -1.000000
vn 0.000000 0.000000 -1.000000
vn 0.000000 0.000000 -0.000000
vn 0.000000 0.000000 1.000000
vn 0.000000 0.000000 0.000000
vn 0.000000 0.000000 1.000000
vn 0.000000 0.000000 -1.000000
vn 0.000000 0.000000 -1.000000
vn 0.000000 0.000000 -1.000000
vn 0.000000 0.000000 -1.000000
vn 0.000000 0.000000 -1.000000
vn 0.000000 0.000000 -1.000000
vn 0.000000 0.000000 -1.000000
vn 0.000000 0.000000 -1.000000
vn 0.000000 0.000000 -1.000000
vn 0.000000 0.000000 0.000000
vn 0.000000 0.000000 1.000000
vn 0.000000 0.000000 0.000000
vn 0.000000 0.000000 -1.000000
vn 0.000000 0.000000 -1.000000
vn 0.000000 0.000000 -0.000000
vn 0.000000 0.000000 1.000000
vn 0.000000 0.000000 0.000000
vn 0.000000 0.000000 1.000000
vn 0.000000 0.000000 -1.000000
vn 0.000000 0.000000 -1.000000
vn 0.000000 0.000000 -1.000000
vn 0.000000 0.000000 0.000000
vn 0.000000 0.000000 0.000000
vn 0.000000 0.000000 0.000000
vn 0.000000 0.000000 1.000000
vn 0.000000 0.000000 1.000000
vn 0.000000 0.000000 0.000000
vn 0.000000 0.000000 -1.000000
vn 0.000000 0.000000 -0.000000
vn 0.000000 0.000000 -1.000000
vn 0.000000 0.000000 1.000000
vn 0.000000 0.000000 1.000000
vn 0.000000 0.000000 1.000000
vn 0.000000 0.000000 1.000000
vn 0.000000 0.000000 1.000000
vn 0.000000 0.000000 1.000000
vn 0.000000 0.000000 1.000000
vn 0.000000 0.000000 1.000000
vn 0.000000 0.000000 1.000000
vn 0.000000 0.000000 0.000000
vn 0.000000 0.000000 1.000000
vn 0.000000 0.000000 0.000000
vn 0.000000 0.000000 1.000000
vn 0.000000 0.000000 1.000000
vn 0.000000 0.000000 0.000000
vn 0.000000 0.000000 -1.000000
vn 0.000000 0.000000 -1.000000
vn 0.000000 0.000000 -1.000000
vn 0.000000 0.000000 1.000000
vn 0.000000 0.000000 1.000000
vn 0.000000 0.000000 1.000000
vn 0.000000 0.000000 1.000000
vn 0.000000 0.000000 1.000000
vn 0.000000 0.000000 1.000000
vn 0.000000 0.000000 1.000000
vn 0.000000 0.000000 1.000000
vn 0.000000 0.000000 1.000000
vn 0.000000 0.000000 -1.000000
vn 0.000000 0.000000 -1.000000
vn 0.000000 0.000000 -1.000000
vn 0.000000 0.000000 -1.000000
vn 0.000000 0.000000 -1.000000
vn 0.000000 0.000000 -1.000000
vn 0.000000 0.000000 -1.000000
vn 0.000000 0.000000 -1.000000
vn 0.000000 0.000000 -1.000000
vn 0.000000 0.000000 -1.000000
vn 0.000000 0.000000 -1.000000
vn 0.000000 0.000000 -1.000000
vn 0.000000 0.000000 -1.000000
vn 0.000000 0.000000 -1.000000
vn 0.000000 0.000000 -1.000000
vn 0.000000 0.000000 -1.000000
vn 0.000000 0.000000 -1.000000
vn 0.000000 0.000000 -1.000000
vn 0.000000 0.000000 -1.000000
vn 0.000000 0.000000 -1.000000
vn 0.000000 0.000000 -1.000000
vn 0.000000 0.000000 -1.000000
vn 0.000000 0.000000 -1.000000
vn 0.000000 0.000000 -1.000000
vn 0.000000 0.000000 -1.000000
vn 0.000000 0.000000 -1.000000
vn 0.000000 0.000000 -1.000000
vn 0.000000 0.000000 -1.000000
vn 0.000000 0.000000 -1.000000
vn 0.000000 0.000000 -1.000000
vn 0.000000 0.000000 -1.000000
vn 0.000000 0.000000 -1.000000
vn 0.000000 0.000000 -1.000000
vn 0.000000 0.000000 -1.000000
vn 0.000000 0.000000 -1.000000
vn 0.000000 0.000000 -1.000000
vn 0.000000 0.000000 -1.000000
vn 0.000000 0.000000 -1.000000
vn 0.000000 0.000000 -1.000000
vn 0.000000 0.000000 -1.000000
vn 0.000000 0.000000 -1.000000
vn 0.000000 0.000000 -1.000000
vn 0.000000 0.000000 -1.000000
vn 0.000000 0.000000 -1.000000
vn 0.000000 0.000000 -1.000000
vn 0.000000 0.000000 -1.000000
vn 0.000000 0.000000 -1.000000
vn 0.000000 0.000000 -1.000000
vn 0.000000 0.000000 1.000000
vn 0.000000 0.000000 1.000000
vn 0.000000 0.000000 1.000000
vn 0.000000 0.000000 1.000000
vn 0.000000 0.000000 1.000000
vn 0.000000 0.000000 1.000000
vn 0.000000 0.000000 1.000000
vn 0.000000 0.000000 1.000000
vn 0.000000 0.000000 1.000000
vn 0.000000 0.000000 1.000000
vn 0.000000 0.000000 1.000000
vn 0.000000 0.000000 1.000000
vn -0.000000 0.000000 1.000000
vn -0.000000 0.000000 1.000000
vn -0.000000 0.000000 1.000000
vn 0.000000 0.000000 1.000000
vn 0.000000 0.000000 1.000000
vn 0.000000 0.000000 1.000000
vn 0.000000 0.000000 1.000000
vn 0.000000 0.000000 1.000000
vn 0.000000 0.000000 1.000000
vn 0.000000 0.000000 1.000000
vn 0.000000 0.000000 1.000000
vn 0.000000 0.000000 1.000000
vn 0.000000 0.000000 1.000000
vn 0.000000 0.000000 1.000000
vn 0.000000 0.000000 1.000000
vn 0.000000 0.000000 1.000000
vn 0.000000 0.000000 1.000000
vn 0.000000 0.000000 1.000000
vn 0.000000 0.000000 1.000000
vn 0.000000 0.000000 1.000000
vn 0.000000 0.000000 1.000000
vn 0.000000 0.000000 1.000000
vn 0.000000 0.000000 1.000000
vn 0.000000 0.000000 1.000000
vn 0.000000 0.000000 1.000000
vn 0.000000 0.000000 1.000000
vn 0.000000 0.000000 1.000000
vn 0.000000 0.000000 1.000000
vn 0.000000 0.000000 1.000000
vn 0.000000 0.000000 1.000000
vn 0.000000 0.000000 1.000000
vn 0.000000 0.000000 1.000000
vn 0.000000 0.000000 1.000000
vn 0.000000 0.000000 1.000000
vn 0.000000 0.000000 1.000000
vn 0.000000 0.000000 1.000000
vn 0.919381 0.000069 -0.393367
vn 0.919381 0.000069 -0.393367
vn 0.919381 0.000069 -0.393367
vn 0.919407 0.000066 -0.393308
vn 0.919407 0.000066 -0.393308
vn 0.919407 0.000066 -0.393308
vn -0.000000 -0.909811 -0.415023
vn -0.000000 -0.909811 -0.415023
vn -0.000000 -0.909811 -0.415023
vn -0.000000 -0.909811 -0.415023
vn -0.000000 -0.909811 -0.415023
vn -0.000000 -0.909811 -0.415023
vn -0.919418 0.000000 -0.393283
vn -0.919418 0.000000 -0.393283
vn -0.919418 0.000000 -0.393283
vn -0.919418 0.000000 -0.393282
vn -0.919418 0.000000 -0.393282
vn -0.919418 0.000000 -0.393282
vn -0.000000 0.909801 -0.415046
vn -0.000000 0.909801 -0.415046
vn -0.000000 0.909801 -0.415046
vn -0.000000 0.909807 -0.415032
vn -0.000000 0.909807 -0.415032
vn -0.000000 0.909807 -0.415032
vn -0.919418 0.000000 -0.393282
vn -0.919418 0.000000 -0.393282
vn -0.919418 0.000000 -0.393282
vn -0.919418 0.000000 -0.393282
vn -0.919418 0.000000 -0.393282
vn -0.919418 0.000000 -0.393282
vn 0.000000 0.909804 -0.415039
vn 0.000000 0.909804 -0.415039
vn 0.000000 0.909804 -0.415039
vn 0.000000 0.909804 -0.415037
vn 0.000000 0.909805 -0.415037
vn 0.000000 0.909805 -0.415037
vn 0.919418 0.000000 -0.393282
vn 0.919418 0.000000 -0.393282
vn 0.919418 0.000000 -0.393282
vn 0.919418 0.000000 -0.393283
vn 0.919418 0.000000 -0.393283
vn 0.919418 0.000000 -0.393283
vn 0.000000 -0.909809 -0.415027
vn 0.000000 -0.909809 -0.415027
vn 0.000000 -0.909809 -0.415027
vn 0.000000 -0.909804 -0.415037
vn 0.000000 -0.909804 -0.415037
vn 0.000000 -0.909805 -0.415037
vn -0.919428 0.000064 0.393257
vn -0.919428 0.000064 0.393257
vn -0.919428 0.000064 0.393257
vn -0.919407 0.000066 0.393308
vn -0.919407 0.000066 0.393308
vn -0.919407 0.000066 0.393308
vn 0.000000 -0.909806 0.415035
vn 0.000000 -0.909806 0.415035
vn 0.000000 -0.909806 0.415035
vn 0.000000 -0.909805 0.415035
vn 0.000000 -0.909805 0.415035
vn 0.000000 -0.909805 0.415035
vn 0.919370 0.000000 0.393394
vn 0.919370 0.000000 0.393394
vn 0.919370 0.000000 0.393394
vn 0.919370 0.000000 0.393394
vn 0.919370 0.000000 0.393393
vn 0.919370 0.000000 0.393393
vn -0.000001 0.909807 0.415031
vn -0.000001 0.909807 0.415031
vn -0.000001 0.909807 0.415031
vn -0.000001 0.909813 0.415019
vn -0.000001 0.909813 0.415019
vn -0.000001 0.909813 0.415019
vn 0.919418 0.000000 0.393282
vn 0.919418 0.000000 0.393282
vn 0.919418 0.000000 0.393282
vn 0.919418 0.000000 0.393282
vn 0.919418 0.000000 0.393282
vn 0.919418 0.000000 0.393282
vn 0.000000 0.909804 0.415039
vn 0.000000 0.909804 0.415039
vn 0.000000 0.909804 0.415039
vn 0.000000 0.909799 0.415050
vn 0.000000 0.909799 0.415050
vn 0.000000 0.909799 0.415050
vn -0.919418 0.000000 0.393282
vn -0.919418 0.000000 0.393282
vn -0.919418 0.000000 0.393282
vn -0.919418 0.000000 0.393282
vn -0.919418 0.000000 0.393282
vn -0.919418 0.000000 0.393282
vn 0.000000 -0.909809 0.415027
vn 0.000000 -0.909809 0.415027
vn 0.000000 -0.909809 0.415027
vn 0.000000 -0.909799 0.415050
vn 0.000000 -0.909799 0.415050
vn 0.000000 -0.909799 0.415050
vn -0.000000 0.000000 -1.000000
vn -0.000000 0.000000 -1.000000
vn -0.000000 0.000000 -1.000000
vn 0.000000 0.000000 -1.000000
vn 0.000000 0.000000 -1.000000
vn 0.000000 0.000000 -1.000000
vn -0.000000 0.000000 -1.000000
vn -0.000000 0.000000 -1.000000
vn -0.000000 0.000000 -1.000000
vn 0.000000 0.000000 -1.000000
vn 0.000000 0.000000 -1.000000
vn 0.000000 0.000000 -1.000000
vn 0.000000 0.000000 -1.000000
vn 0.000000 0.000000 -1.000000
vn 0.000000 0.000000 -1.000000
vn 0.000000 0.000000 -1.000000
vn 0.000000 0.000000 -1.000000
vn 0.000000 0.000000 -1.000000
vn 0.000000 0.000000 -1.000000
vn 0.000000 0.000000 -1.000000
vn 0.000000 0.000000 -1.000000
vn 0.000000 0.000000 -1.000000
vn 0.000000 0.000000 -1.000000
vn 0.000000 0.000000 -1.000000
vn 0.000000 0.000000 -1.000000
vn 0.000000 0.000000 -1.000000
vn 0.000000 0.000000 -1.000000
vn -0.000000 0.000000 -1.000000
vn -0.000000 0.000000 -1.000000
vn -0.000000 0.000000 -1.000000
vn 0.000000 0.000000 -1.000000
vn 0.000000 0.000000 -1.000000
vn 0.000000 0.000000 -1.000000
vn 0.000000 0.000000 -1.000000
vn 0.000000 0.000000 -1.000000
vn 0.000000 0.000000 -1.000000
vn 0.000000 0.000000 -1.000000
vn 0.000000 0.000000 -1.000000
vn 0.000000 0.000000 -1.000000
vn 0.000000 0.000000 -1.000000
vn 0.000000 0.000000 -1.000000
vn 0.000000 0.000000 -1.000000
vn 0.000000 0.000000 -1.000000
vn 0.000000 0.000000 -1.000000
vn 0.000000 0.000000 -1.000000
vn 0.000000 0.000000 -1.000000
vn 0.000000 0.000000 -1.000000
vn 0.000000 0.000000 -1.000000
vn 0.000000 0.000000 1.000000
vn 0.000000 0.000000 1.000000
vn 0.000000 0.000000 1.000000
vn 0.000000 0.000000 1.000000
vn 0.000000 0.000000 1.000000
vn 0.000000 0.000000 1.000000
vn 0.000000 0.000000 1.000000
vn 0.000000 0.000000 1.000000
vn 0.000000 0.000000 1.000000
vn 0.000000 0.000000 1.000000
vn 0.000000 0.000000 1.000000
vn 0.000000 0.000000 1.000000
vn 0.000000 0.000000 1.000000
vn 0.000000 0.000000 1.000000
vn 0.000000 0.000000 1.000000
vn 0.000000 0.000000 1.000000
vn 0.000000 0.000000 1.000000
vn 0.000000 0.000000 1.000000
vn 0.000000 0.000000 1.000000
vn 0.000000 0.000000 1.000000
vn 0.000000 0.000000 1.000000
vn 0.000000 0.000000 1.000000
vn 0.000000 0.000000 1.000000
vn 0.000000 0.000000 1.000000
vn 0.000000 0.000000 1.000000
vn 0.000000 0.000000 1.000000
vn 0.000000 0.000000 1.000000
vn 0.000000 0.000000 1.000000
vn 0.000000 0.000000 1.000000
vn 0.000000 0.000000 1.000000
vn 0.000000 0.000000 1.000000
vn 0.000000 0.000000 1.000000
vn 0.000000 0.000000 1.000000
vn 0.000000 0.000000 1.000000
vn 0.000000 0.000000 1.000000
vn 0.000000 0.000000 1.000000
vn 0.000000 0.000000 1.000000
vn 0.000000 0.000000 1.000000
vn 0.000000 0.000000 1.000000
vn 0.000000 0.000000 1.000000
vn 0.000000 0.000000 1.000000
vn 0.000000 0.000000 1.000000
vn 0.000000 0.000000 1.000000
vn 0.000000 0.000000 1.000000
vn 0.000000 0.000000 1.000000
vn 0.000000 0.000000 1.000000
vn 0.000000 0.000000 1.000000
vn 0.000000 0.000000 1.000000
vn -0.753562 -0.000052 -0.657377
vn -0.753562 -0.000052 -0.657377
vn -0.753562 -0.000052 -0.657377
vn -0.753502 -0.000057 -0.657445
vn -0.753502 -0.000057 -0.657445
vn -0.753502 -0.000057 -0.657445
vn 0.000000 0.667729 -0.744404
vn 0.000000 0.667729 -0.744404
vn 0.000000 0.667729 -0.744404
vn 0.000000 0.667734 -0.744400
vn 0.000000 0.667734 -0.744400
vn 0.000000 0.667734 -0.744400
vn 0.753534 0.000000 -0.657409
vn 0.753534 0.000000 -0.657409
vn 0.753534 0.000000 -0.657409
vn 0.753534 0.000000 -0.657409
vn 0.753534 0.000000 -0.657409
vn 0.753534 0.000000 -0.657409
vn 0.000000 -0.667737 -0.744397
vn 0.000000 -0.667737 -0.744397
vn 0.000000 -0.667737 -0.744397
vn 0.000001 -0.667736 -0.744398
vn 0.000001 -0.667736 -0.744398
vn 0.000001 -0.667736 -0.744398
vn 0.753534 0.000000 -0.657409
vn 0.753534 0.000000 -0.657409
vn 0.753534 0.000000 -0.657409
vn 0.753534 0.000000 -0.657409
vn 0.753534 0.000000 -0.657409
vn 0.753534 0.000000 -0.657409
vn 0.000000 -0.667743 -0.744392
vn 0.000000 -0.667743 -0.744392
vn 0.000000 -0.667743 -0.744392
vn 0.000000 -0.667746 -0.744389
vn 0.000000 -0.667746 -0.744389
vn 0.000000 -0.667746 -0.744389
vn -0.753587 0.000000 -0.657348
vn -0.753587 0.000000 -0.657348
vn -0.753587 0.000000 -0.657348
vn -0.753587 0.000000 -0.657348
vn -0.753587 0.000000 -0.657348
vn -0.753587 0.000000 -0.657348
vn 0.000000 0.667718 -0.744414
vn 0.000000 0.667718 -0.744414
vn 0.000000 0.667718 -0.744414
vn 0.000000 0.667726 -0.744407
vn 0.000000 0.667726 -0.744408
vn 0.000000 0.667726 -0.744408
vn 0.753511 -0.000056 0.657435
vn 0.753511 -0.000056 0.657435
vn 0.753511 -0.000056 0.657435
vn 0.753502 -0.000057 0.657445
vn 0.753502 -0.000057 0.657445
vn 0.753502 -0.000057 0.657445
vn -0.000000 0.667723 0.744410
vn -0.000000 0.667723 0.744410
vn -0.000000 0.667723 0.744410
vn 0.000000 0.667717 0.744415
vn 0.000000 0.667717 0.744415
vn 0.000000 0.667717 0.744415
vn -0.753534 0.000000 0.657409
vn -0.753534 0.000000 0.657409
vn -0.753534 0.000000 0.657409
vn -0.753534 0.000000 0.657409
vn -0.753534 0.000000 0.657409
vn -0.753534 0.000000 0.657409
vn 0.000001 -0.667746 0.744389
vn 0.000001 -0.667746 0.744389
vn 0.000001 -0.667746 0.744389
vn 0.000001 -0.667740 0.744395
vn 0.000001 -0.667740 0.744395
vn 0.000001 -0.667740 0.744395
vn -0.753587 0.000000 0.657348
vn -0.753587 0.000000 0.657348
vn -0.753587 0.000000 0.657348
vn -0.753588 0.000000 0.657348
vn -0.753588 0.000000 0.657348
vn -0.753588 0.000000 0.657348
vn 0.000000 -0.667743 0.744392
vn 0.000000 -0.667743 0.744392
vn 0.000000 -0.667743 0.744392
vn -0.000001 -0.667742 0.744393
vn -0.000001 -0.667742 0.744393
vn -0.000001 -0.667742 0.744393
vn 0.753587 0.000000 0.657348
vn 0.753587 0.000000 0.657348
vn 0.753587 0.000000 0.657348
vn 0.753588 0.000000 0.657348
vn 0.753588 0.000000 0.657348
vn 0.753588 0.000000 0.657348
vn 0.000000 0.667724 0.744409
vn 0.000000 0.667724 0.744409
vn 0.000000 0.667724 0.744409
vn 0.000000 0.667722 0.744411
vn 0.000000 0.667722 0.744411
vn 0.000000 0.667722 0.744411
vn -1.000000 0.000000 -0.000048
vn -1.000000 0.000000 -0.000048
vn -1.000000 0.000000 -0.000048
vn -1.000000 0.000000 -0.000048
vn -1.000000 0.000000 -0.000048
vn -1.000000 0.000000 -0.000048
vn 0.000001 0.999990 -0.004458
vn 0.000001 0.999990 -0.004458
vn 0.000001 0.999990 -0.004458
vn 0.000000 0.999990 -0.004457
vn 0.000000 0.999990 -0.004457
vn 0.000000 0.999990 -0.004457
vn 1.000000 0.000000 -0.000048
vn 1.000000 0.000000 -0.000048
vn 1.000000 0.000000 -0.000048
vn 1.000000 -0.000075 0.000242
vn 1.000000 -0.000075 0.000242
vn 1.000000 -0.000075 0.000242
vn 0.000000 -0.999990 0.004437
vn 0.000000 -0.999990 0.004437
vn 0.000000 -0.999990 0.004437
vn 0.000002 -0.999990 0.004430
vn 0.000002 -0.999990 0.004430
vn 0.000002 -0.999990 0.004430
vn -1.000000 -0.000075 -0.000241
vn -1.000000 -0.000075 -0.000241
vn -1.000000 -0.000075 -0.000241
vn -1.000000 0.000000 0.000048
vn -1.000000 0.000000 0.000048
vn -1.000000 0.000000 0.000048
vn 0.000000 0.999991 -0.004365
vn 0.000000 0.999991 -0.004365
vn 0.000000 0.999990 -0.004365
vn 0.000001 0.999991 -0.004358
vn 0.000001 0.999991 -0.004358
vn 0.000001 0.999991 -0.004358
vn 1.000000 0.000000 0.000048
vn 1.000000 0.000000 0.000048
vn 1.000000 0.000000 0.000048
vn 1.000000 0.000000 0.000048
vn 1.000000 0.000000 0.000048
vn 1.000000 0.000000 0.000048
vn 0.000001 -0.999990 0.004382
vn 0.000001 -0.999990 0.004382
vn 0.000001 -0.999990 0.004382
vn -0.000001 -0.999990 0.004392
vn -0.000001 -0.999990 0.004392
vn -0.000001 -0.999990 0.004392
vn 1.000000 0.000000 0.000000
vn 1.000000 0.000000 0.000000
vn 1.000000 0.000000 0.000000
vn 1.000000 0.000000 0.000000
vn 0.000000 1.000000 0.000000
vn 0.000000 1.000000 0.000000
vn 0.000000 1.000000 0.000000
vn 0.000000 1.000000 0.000000
vn -1.000000 0.000000 0.000000
vn -1.000000 0.000000 0.000000
vn -1.000000 0.000000 0.000000
vn -1.000000 0.000000 0.000000
vn 0.000000 -1.000000 0.000000
vn 0.000000 -1.000000 0.000000
vn 0.000000 -1.000000 0.000000
vn 0.000000 -1.000000 0.000000
vn 0.000000 0.000000 -1.000000
vn 0.000000 0.000000 -1.000000
vn 0.000000 0.000000 -1.000000
vn 0.000000 0.000000 -1.000000
vn 0.000000 0.000000 1.000000
vn 0.000000 0.000000 1.000000
vn 0.000000 0.000000 1.000000
vn 0.000000 0.000000 1.000000
vn -0.011207 0.555644 -0.831345
vn -0.011490 0.942860 -0.332990
vn 0.011490 0.942861 -0.332990
vn 0.011207 0.555644 -0.831345
vn -0.011490 0.942860 0.332990
vn 0.011490 0.942860 0.332990
vn -0.011207 0.555644 0.831345
vn 0.011207 0.555644 0.831345
vn -0.011039 0.000000 0.999939
vn 0.011039 -0.000000 0.999939
vn -0.011207 -0.555643 0.831346
vn 0.011207 -0.555643 0.831346
vn -0.011490 -0.942860 0.332992
vn 0.011490 -0.942860 0.332992
vn -0.011490 -0.942860 -0.332992
vn 0.011490 -0.942860 -0.332992
vn -0.011207 -0.555643 -0.831346
vn 0.011207 -0.555643 -0.831346
vn -0.011039 0.000000 -0.999939
vn 0.011039 0.000000 -0.999939
vn -1.000000 0.000000 0.000000
vn 1.000000 0.000000 0.000000
vn 1.000000 0.000000 0.000000
vn 1.000000 0.000000 0.000000
vn 1.000000 0.000000 0.000000
vn 1.000000 0.000000 0.000000
vn 0.000000 1.000000 0.000000
vn 0.000000 1.000000 0.000000
vn 0.000000 1.000000 0.000000
vn 0.000000 1.000000 0.000000
vn -1.000000 0.000000 0.000000
vn -1.000000 0.000000 0.000000
vn -1.000000 0.000000 0.000000
vn -1.000000 0.000000 0.000000
vn 0.000000 -1.000000 0.000000
vn 0.000000 -1.000000 0.000000
vn 0.000000 -1.000000 0.000000
vn 0.000000 -1.000000 0.000000
vn 0.000000 0.000000 -1.000000
vn 0.000000 0.000000 -1.000000
vn 0.000000 0.000000 -1.000000
vn 0.000000 0.000000 -1.000000
vn 0.000000 0.000000 1.000000
vn 0.000000 0.000000 1.000000
vn 0.000000 0.000000 1.000000
vn 0.000000 0.000000 1.000000
s off
g door_fire_exit
usemtl initialShadingGroup
f 1/269/1 3/270/2 4/271/3
f 4/271/4 2/272/5 1/269/6
f 5/273/7 6/274/8 8/275/9
f 8/275/10 7/276/11 5/273/12
f 2/325/13 4/326/14 8/327/15
f 8/327/16 6/328/17 2/325/18
f 3/329/19 1/330/20 5/331/21
f 5/331/22 7/332/23 3/329/24
f 1/104/25 2/105/26 21/106/27
f 1/104/28 21/106/29 25/107/30
f 1/104/31 25/107/32 46/108/33
f 2/105/34 6/109/35 9/110/36
f 2/105/37 9/110/38 14/111/39
f 2/105/40 14/111/41 11/112/42
f 2/105/43 11/112/44 21/106/45
f 6/109/46 5/113/47 10/114/48
f 6/109/49 10/114/50 15/115/51
f 6/109/52 15/115/53 9/110/54
f 5/113/55 1/104/56 46/108/57
f 5/113/58 46/108/59 12/116/60
f 5/113/61 12/116/62 13/117/63
f 5/113/64 13/117/65 10/114/66
f 18/118/67 19/119/68 20/120/69
f 20/120/70 17/121/71 18/118/72
f 21/106/73 11/112/74 22/122/75
f 22/122/76 23/123/77 21/106/78
f 11/112/79 16/124/80 24/125/81
f 24/125/82 22/122/83 11/112/84
f 16/124/85 25/107/86 26/126/87
f 26/126/88 24/125/89 16/124/90
f 25/107/91 21/106/92 23/123/93
f 23/123/94 26/126/95 25/107/96
f 23/123/97 22/122/98 27/127/99
f 27/127/100 28/128/101 23/123/102
f 22/122/103 24/125/104 29/129/105
f 29/129/106 27/127/107 22/122/108
f 24/125/109 26/126/110 30/130/111
f 30/130/112 29/129/113 24/125/114
f 26/126/115 23/123/116 28/128/117
f 28/128/118 30/130/119 26/126/120
f 28/128/121 27/127/122 31/131/123
f 31/131/124 32/132/125 28/128/126
f 27/127/127 29/129/128 33/133/129
f 33/133/130 31/131/131 27/127/132
f 29/129/133 30/130/134 34/134/135
f 34/134/136 33/133/137 29/129/138
f 30/130/139 28/128/140 32/132/141
f 32/132/142 34/134/143 30/130/144
f 32/132/145 31/131/146 35/135/147
f 35/135/148 36/136/149 32/132/150
f 31/131/151 33/133/152 37/137/153
f 37/137/154 35/135/155 31/131/156
f 33/133/157 34/134/158 38/138/159
f 38/138/160 37/137/161 33/133/162
f 34/134/163 32/132/164 36/136/165
f 36/136/166 38/138/167 34/134/168
f 36/333/169 35/334/170 18/335/171
f 18/335/172 17/336/173 36/333/174
f 35/277/175 37/278/176 19/279/177
f 19/279/178 18/280/179 35/277/180
f 37/337/181 38/338/182 20/339/183
f 20/339/184 19/340/185 37/337/186
f 38/281/187 36/282/188 17/283/189
f 17/283/190 20/284/191 38/281/192
f 40/139/193 41/140/194 42/141/195
f 42/141/196 39/142/197 40/139/198
f 25/107/199 16/124/200 43/143/201
f 43/143/202 44/144/203 25/107/204
f 16/124/205 12/116/206 45/145/207
f 45/145/208 43/143/209 16/124/210
f 12/116/211 46/108/212 47/146/213
f 47/146/214 45/145/215 12/116/216
f 46/108/217 25/107/218 44/144/219
f 44/144/220 47/146/221 46/108/222
f 44/144/223 43/143/224 48/147/225
f 48/147/226 49/148/227 44/144/228
f 43/143/229 45/145/230 50/149/231
f 50/149/232 48/147/233 43/143/234
f 45/145/235 47/146/236 51/150/237
f 51/150/238 50/149/239 45/145/240
f 47/146/241 44/144/242 49/148/243
f 49/148/244 51/150/245 47/146/246
f 49/148/247 48/147/248 52/151/249
f 52/151/250 53/152/251 49/148/252
f 48/147/253 50/149/254 54/153/255
f 54/153/256 52/151/257 48/147/258
f 50/149/259 51/150/260 55/154/261
f 55/154/262 54/153/263 50/149/264
f 51/150/265 49/148/266 53/152/267
f 53/152/268 55/154/269 51/150/270
f 53/152/271 52/151/272 56/155/273
f 56/155/274 57/156/275 53/152/276
f 52/151/277 54/153/278 58/157/279
f 58/157/280 56/155/281 52/151/282
f 54/153/283 55/154/284 59/158/285
f 59/158/286 58/157/287 54/153/288
f 55/154/289 53/152/290 57/156/291
f 57/156/292 59/158/293 55/154/294
f 57/341/295 56/342/296 40/343/297
f 40/343/298 39/344/299 57/341/300
f 56/285/301 58/286/302 41/287/303
f 41/287/304 40/288/305 56/285/306
f 58/345/307 59/346/308 42/347/309
f 42/347/310 41/348/311 58/345/312
f 59/289/313 57/290/314 39/291/315
f 39/291/316 42/292/317 59/289/318
f 4/1/319 3/2/320 60/3/321
f 4/1/322 60/3/323 61/4/324
f 4/1/325 61/4/326 62/5/327
f 3/2/328 7/6/329 63/7/330
f 3/2/331 63/7/332 64/8/333
f 3/2/334 64/8/335 65/9/336
f 3/2/337 65/9/338 60/3/339
f 7/6/340 8/10/341 66/11/342
f 7/6/343 66/11/344 67/12/345
f 7/6/346 67/12/347 63/7/348
f 8/10/349 4/1/350 62/5/351
f 8/10/352 62/5/353 68/13/354
f 8/10/355 68/13/356 69/14/357
f 8/10/358 69/14/359 66/11/360
f 72/15/361 73/16/362 74/17/363
f 74/17/364 71/18/365 72/15/366
f 60/3/367 65/9/368 75/19/369
f 75/19/370 76/20/371 60/3/372
f 65/9/373 70/21/374 77/22/375
f 77/22/376 75/19/377 65/9/378
f 70/21/379 61/4/380 78/23/381
f 78/23/382 77/22/383 70/21/384
f 61/4/385 60/3/386 76/20/387
f 76/20/388 78/23/389 61/4/390
f 76/20/391 75/19/392 79/24/393
f 79/24/394 80/25/395 76/20/396
f 75/19/397 77/22/398 81/26/399
f 81/26/400 79/24/401 75/19/402
f 77/22/403 78/23/404 82/27/405
f 82/27/406 81/26/407 77/22/408
f 78/23/409 76/20/410 80/25/411
f 80/25/412 82/27/413 78/23/414
f 80/25/415 79/24/416 83/28/417
f 83/28/418 84/29/419 80/25/420
f 79/24/421 81/26/422 85/30/423
f 85/30/424 83/28/425 79/24/426
f 81/26/427 82/27/428 86/31/429
f 86/31/430 85/30/431 81/26/432
f 82/27/433 80/25/434 84/29/435
f 84/29/436 86/31/437 82/27/438
f 84/29/439 83/28/440 87/32/441
f 87/32/442 88/33/443 84/29/444
f 83/28/445 85/30/446 89/34/447
f 89/34/448 87/32/449 83/28/450
f 85/30/451 86/31/452 90/35/453
f 90/35/454 89/34/455 85/30/456
f 86/31/457 84/29/458 88/33/459
f 88/33/460 90/35/461 86/31/462
f 88/33/463 87/32/464 72/15/465
f 72/15/466 71/18/467 88/33/468
f 87/32/469 89/34/470 73/16/471
f 73/16/472 72/15/473 87/32/474
f 89/34/475 90/35/476 74/17/477
f 74/17/478 73/16/479 89/34/480
f 90/35/481 88/33/482 71/18/483
f 71/18/484 74/17/485 90/35/486
f 92/36/487 93/37/488 94/38/489
f 94/38/490 91/39/491 92/36/492
f 61/4/493 70/21/494 95/40/495
f 95/40/496 96/41/497 61/4/498
f 70/21/499 68/13/500 97/42/501
f 97/42/502 95/40/503 70/21/504
f 68/13/505 62/5/506 98/43/507
f 98/43/508 97/42/509 68/13/510
f 62/5/511 61/4/512 96/41/513
f 96/41/514 98/43/515 62/5/516
f 96/41/517 95/40/518 99/44/519
f 99/44/520 100/45/521 96/41/522
f 95/40/523 97/42/524 101/46/525
f 101/46/526 99/44/527 95/40/528
f 97/42/529 98/43/530 102/47/531
f 102/47/532 101/46/533 97/42/534
f 98/43/535 96/41/536 100/45/537
f 100/45/538 102/47/539 98/43/540
f 100/45/541 99/44/542 103/48/543
f 103/48/544 104/49/545 100/45/546
f 99/44/547 101/46/548 105/50/549
f 105/50/550 103/48/551 99/44/552
f 101/46/553 102/47/554 106/51/555
f 106/51/556 105/50/557 101/46/558
f 102/47/559 100/45/560 104/49/561
f 104/49/562 106/51/563 102/47/564
f 104/49/565 103/48/566 107/52/567
f 107/52/568 108/53/569 104/49/570
f 103/48/571 105/50/572 109/54/573
f 109/54/574 107/52/575 103/48/576
f 105/50/577 106/51/578 110/55/579
f 110/55/580 109/54/581 105/50/582
f 106/51/583 104/49/584 108/53/585
f 108/53/586 110/55/587 106/51/588
f 108/53/589 107/52/590 92/36/591
f 92/36/592 91/39/593 108/53/594
f 107/52/595 109/54/596 93/37/597
f 93/37/598 92/36/599 107/52/600
f 109/54/601 110/55/602 94/38/603
f 94/38/604 93/37/605 109/54/606
f 110/55/607 108/53/608 91/39/609
f 91/39/610 94/38/611 110/55/612
f 111/67/613 112/68/614 113/69/615
f 113/69/616 114/70/617 115/71/618
f 111/242/619 113/243/620 115/244/621
f 115/71/622 116/72/623 117/73/624
f 111/67/625 115/71/626 117/73/627
f 111/67/628 117/73/629 118/74/630
f 120/56/631 121/57/632 122/58/633
f 122/58/634 123/59/635 124/60/636
f 124/60/637 125/61/638 126/62/639
f 122/58/640 124/60/641 126/62/642
f 120/56/643 122/58/644 126/62/645
f 119/63/646 120/56/647 126/62/648
f 14/111/649 9/110/650 112/159/651
f 112/159/652 111/160/653 14/111/654
f 9/245/655 15/246/656 113/247/657
f 113/247/658 112/249/659 9/245/660
f 15/250/661 10/251/662 114/252/663
f 114/248/664 113/247/665 15/246/666
f 10/114/667 13/117/668 115/161/669
f 115/161/670 114/162/671 10/114/672
f 12/116/673 16/124/674 117/163/675
f 117/163/676 116/164/677 12/116/678
f 16/381/679 11/382/680 118/383/681
f 118/165/682 117/163/683 16/124/684
f 63/7/685 67/12/686 120/56/687
f 120/56/688 119/63/689 63/7/690
f 67/12/691 66/11/692 121/57/693
f 121/57/694 120/56/695 67/12/696
f 66/11/697 69/14/698 122/58/699
f 122/58/700 121/57/701 66/11/702
f 68/13/703 70/21/704 124/60/705
f 124/60/706 123/59/707 68/13/708
f 70/21/709 65/9/710 125/61/711
f 125/61/712 124/60/713 70/21/714
f 64/8/715 63/7/716 119/63/717
f 119/63/718 126/62/719 64/8/720
f 13/117/721 12/116/722 128/166/723
f 128/166/724 127/167/725 13/117/726
f 12/116/727 116/164/728 129/168/729
f 129/168/730 128/166/731 12/116/732
f 116/164/733 115/161/734 130/169/735
f 130/169/736 129/168/737 116/164/738
f 115/161/739 13/117/740 127/167/741
f 127/167/742 130/169/743 115/161/744
f 11/112/745 14/111/746 132/170/747
f 132/170/748 131/171/749 11/112/750
f 14/111/751 111/160/752 133/172/753
f 133/172/754 132/170/755 14/111/756
f 111/160/757 118/165/758 134/173/759
f 134/173/760 133/172/761 111/160/762
f 118/165/763 11/112/764 131/171/765
f 131/171/766 134/173/767 118/165/768
f 69/14/769 68/13/770 136/64/771
f 136/64/772 135/65/773 69/14/774
f 68/13/775 123/59/776 137/66/777
f 137/66/778 136/64/779 68/13/780
f 123/59/781 122/58/782 138/75/783
f 138/75/784 137/66/785 123/59/786
f 122/58/787 69/14/788 135/65/789
f 135/65/790 138/75/791 122/58/792
f 65/9/793 64/8/794 140/76/795
f 140/76/796 139/77/797 65/9/798
f 64/8/799 126/62/800 141/78/801
f 141/78/802 140/76/803 64/8/804
f 126/62/805 125/61/806 142/79/807
f 142/79/808 141/78/809 126/62/810
f 125/61/811 65/9/812 139/77/813
f 139/77/814 142/79/815 125/61/816
f 127/167/817 128/166/818 144/174/819
f 144/174/820 143/175/821 127/167/822
f 128/166/823 129/168/824 145/176/825
f 145/176/826 144/174/827 128/166/828
f 129/168/829 130/169/830 146/177/831
f 146/177/832 145/176/833 129/168/834
f 130/169/835 127/167/836 143/175/837
f 143/175/838 146/177/839 130/169/840
f 131/171/841 132/170/842 148/178/843
f 148/178/844 147/179/845 131/171/846
f 132/170/847 133/172/848 149/180/849
f 149/180/850 148/178/851 132/170/852
f 133/172/853 134/173/854 150/181/855
f 150/181/856 149/180/857 133/172/858
f 134/173/859 131/171/860 147/179/861
f 147/179/862 150/181/863 134/173/864
f 135/65/865 136/64/866 152/80/867
f 152/80/868 151/81/869 135/65/870
f 136/64/871 137/66/872 153/82/873
f 153/82/874 152/80/875 136/64/876
f 137/66/877 138/75/878 154/83/879
f 154/83/880 153/82/881 137/66/882
f 138/75/883 135/65/884 151/81/885
f 151/81/886 154/83/887 138/75/888
f 139/77/889 140/76/890 156/84/891
f 156/84/892 155/85/893 139/77/894
f 140/76/895 141/78/896 157/86/897
f 157/86/898 156/84/899 140/76/900
f 141/78/901 142/79/902 158/87/903
f 158/87/904 157/86/905 141/78/906
f 142/79/907 139/77/908 155/85/909
f 155/85/910 158/87/911 142/79/912
f 143/175/913 144/174/914 160/182/915
f 160/182/916 159/183/917 143/175/918
f 144/174/919 145/176/920 161/184/921
f 161/184/922 160/182/923 144/174/924
f 145/176/925 146/177/926 162/185/927
f 162/185/928 161/184/929 145/176/930
f 146/177/931 143/175/932 159/183/933
f 159/183/934 162/185/935 146/177/936
f 147/179/937 148/178/938 164/186/939
f 164/186/940 163/187/941 147/179/942
f 148/178/943 149/180/944 165/188/945
f 165/188/946 164/186/947 148/178/948
f 149/180/949 150/181/950 166/189/951
f 166/189/952 165/188/953 149/180/954
f 150/181/955 147/179/956 163/187/957
f 163/187/958 166/189/959 150/181/960
f 151/81/961 152/80/962 168/88/963
f 168/88/964 167/89/965 151/81/966
f 152/80/967 153/82/968 169/90/969
f 169/90/970 168/88/971 152/80/972
f 153/82/973 154/83/974 170/91/975
f 170/91/976 169/90/977 153/82/978
f 154/83/979 151/81/980 167/89/981
f 167/89/982 170/91/983 154/83/984
f 155/85/985 156/84/986 172/92/987
f 172/92/988 171/93/989 155/85/990
f 156/84/991 157/86/992 173/94/993
f 173/94/994 172/92/995 156/84/996
f 157/86/997 158/87/998 174/95/999
f 174/95/1000 173/94/1001 157/86/1002
f 158/87/1003 155/85/1004 171/93/1005
f 171/93/1006 174/95/1007 158/87/1008
f 159/183/1009 160/182/1010 176/190/1011
f 176/190/1012 175/191/1013 159/183/1014
f 160/182/1015 161/184/1016 177/192/1017
f 177/192/1018 176/190/1019 160/182/1020
f 161/184/1021 162/185/1022 178/193/1023
f 178/193/1024 177/192/1025 161/184/1026
f 162/185/1027 159/183/1028 175/191/1029
f 175/191/1030 178/193/1031 162/185/1032
f 163/187/1033 164/186/1034 180/194/1035
f 180/194/1036 179/195/1037 163/187/1038
f 164/186/1039 165/188/1040 181/196/1041
f 181/196/1042 180/194/1043 164/186/1044
f 165/188/1045 166/189/1046 182/197/1047
f 182/197/1048 181/196/1049 165/188/1050
f 166/189/1051 163/187/1052 179/195/1053
f 179/195/1054 182/197/1055 166/189/1056
f 167/89/1057 168/88/1058 184/96/1059
f 184/96/1060 183/97/1061 167/89/1062
f 168/88/1063 169/90/1064 185/98/1065
f 185/98/1066 184/96/1067 168/88/1068
f 169/90/1069 170/91/1070 186/99/1071
f 186/99/1072 185/98/1073 169/90/1074
f 170/91/1075 167/89/1076 183/97/1077
f 183/97/1078 186/99/1079 170/91/1080
f 171/93/1081 172/92/1082 188/100/1083
f 188/100/1084 187/101/1085 171/93/1086
f 172/92/1087 173/94/1088 189/102/1089
f 189/102/1090 188/100/1091 172/92/1092
f 173/94/1093 174/95/1094 190/103/1095
f 190/103/1096 189/102/1097 173/94/1098
f 174/95/1099 171/93/1100 187/101/1101
f 187/101/1102 190/103/1103 174/95/1104
f 181/349/1105 182/350/1106 185/351/1107
f 185/351/1108 186/352/1109 181/349/1110
f 182/293/1111 179/294/1112 184/295/1113
f 184/295/1114 185/296/1115 182/293/1116
f 179/353/1117 180/354/1118 183/355/1119
f 183/355/1120 184/356/1121 179/353/1122
f 180/297/1123 181/298/1124 186/299/1125
f 186/299/1126 183/300/1127 180/297/1128
f 175/357/1129 176/358/1130 187/359/1131
f 187/359/1132 188/360/1133 175/357/1134
f 176/301/1135 177/302/1136 190/303/1137
f 190/303/1138 187/304/1139 176/301/1140
f 177/361/1141 178/362/1142 189/363/1143
f 189/363/1144 190/364/1145 177/361/1146
f 178/305/1147 175/306/1148 188/307/1149
f 188/307/1150 189/308/1151 178/305/1152
f 191/365/1153 192/366/1154 194/367/1155 193/368/1156
f 193/309/1157 194/310/1158 196/311/1159 195/312/1160
f 195/369/1161 196/370/1162 198/371/1163 197/372/1164
f 197/313/1165 198/314/1166 192/315/1167 191/316/1168
f 192/253/1169 198/254/1170 196/255/1171 194/256/1172
f 197/257/1173 191/258/1174 193/259/1175 195/260/1176
s 1
f 199/198/1177 200/213/1178 210/214/1179 209/219/1180
f 200/213/1178 201/212/1181 211/215/1182 210/214/1179
f 201/199/1181 202/201/1183 212/202/1184 211/200/1182
f 202/201/1183 203/203/1185 213/204/1186 212/202/1184
f 203/203/1185 204/205/1187 214/206/1188 213/204/1186
f 204/205/1187 205/207/1189 215/208/1190 214/206/1188
f 205/207/1189 206/209/1191 216/216/1192 215/208/1190
f 206/209/1191 207/210/1193 217/217/1194 216/216/1192
f 207/210/1193 208/211/1195 218/218/1196 217/217/1194
f 208/211/1195 199/198/1177 209/219/1180 218/218/1196
f 200/220/1178 199/221/1177 219/222/1197
f 201/224/1181 200/220/1178 219/222/1197
f 202/226/1183 201/224/1181 219/222/1197
f 203/228/1185 202/226/1183 219/222/1197
f 204/230/1187 203/228/1185 219/222/1197
f 205/229/1189 204/230/1187 219/222/1197
f 206/227/1191 205/229/1189 219/222/1197
f 207/225/1193 206/227/1191 219/222/1197
f 208/223/1195 207/225/1193 219/222/1197
f 199/221/1177 208/223/1195 219/222/1197
f 209/231/1180 210/232/1179 220/233/1198
f 210/232/1179 211/234/1182 220/233/1198
f 211/234/1182 212/236/1184 220/233/1198
f 212/236/1184 213/238/1186 220/233/1198
f 213/238/1186 214/240/1188 220/233/1198
f 214/240/1188 215/241/1190 220/233/1198
f 215/241/1190 216/239/1192 220/233/1198
f 216/239/1192 217/237/1194 220/233/1198
f 217/237/1194 218/235/1196 220/233/1198
f 218/235/1196 209/231/1180 220/233/1198
s off
f 221/373/1199 222/374/1200 224/375/1201 223/376/1202
f 223/317/1203 224/318/1204 226/319/1205 225/320/1206
f 225/377/1207 226/378/1208 228/379/1209 227/380/1210
f 227/321/1211 228/322/1212 222/323/1213 221/324/1214
f 222/261/1215 228/262/1216 226/263/1217 224/264/1218
f 227/265/1219 221/266/1220 223/267/1221 225/268/1222
