# This file uses centimeters as units for non-parametric coordinates.

mtllib reception_cabinet.mtl
g default
v -76.075264 264.882690 8.724033
v 88.532585 264.882690 8.724049
v -76.075264 273.070313 8.724033
v 88.532585 273.070313 8.724049
v -76.075264 273.070313 -15.296255
v -76.075264 264.882690 -15.296255
v 88.532585 264.882690 -15.296240
v -90.041481 272.481506 27.507223
v 101.251045 272.481506 27.507223
v -90.041481 309.853455 27.507223
v 101.251045 309.853455 27.507223
v -90.041481 309.853455 -44.475563
v 101.251045 309.853455 -44.475563
v -90.041481 272.481506 -44.475563
v 101.251045 272.481506 -44.475563
v -83.618027 106.238251 13.751465
v -74.408722 106.238251 13.751465
v -83.618027 308.335876 13.751465
v -74.408722 308.335876 13.751465
v -83.618027 308.335876 -40.375168
v -74.408722 308.335876 -33.576721
v -83.618027 106.238251 -40.375168
v -74.408722 106.238251 -33.576721
v -79.489876 276.189911 15.618156
v -79.489876 269.218719 15.618156
v 89.549194 276.189911 15.618156
v 89.549194 269.218719 15.618156
v 89.549194 276.189911 -31.710026
v 89.549194 269.218719 -31.710026
v -79.489876 276.189911 -31.710026
v -79.489876 269.218719 -31.710026
v 87.424088 106.238251 11.949150
v 94.994705 106.238251 11.949150
v 87.424088 308.335876 11.949165
v 94.994705 308.335876 11.949165
v 87.424088 308.335876 -42.177460
v 94.994705 308.335876 -39.904755
v 87.424088 106.238251 -42.177475
v 94.994705 106.238251 -39.904770
v 89.309822 116.125175 8.838303
v 89.309822 120.642281 8.838303
v -75.915421 116.125175 8.838303
v -75.915421 120.642281 8.838303
v -75.915421 116.125175 -38.489880
v -75.915421 120.642281 -38.489880
v 89.309822 116.125175 -38.489880
v 89.309822 120.642281 -38.489880
v 89.309822 143.371567 8.838303
v 89.309822 147.972931 8.838303
v -75.915421 143.371567 8.838303
v -75.915421 147.972931 8.838303
v -75.915421 143.371567 -38.489880
v -75.915421 147.972931 -38.489880
v 89.309822 143.371567 -38.489880
v 89.309822 147.972931 -38.489880
v 89.309822 129.750473 8.838303
v 89.309822 134.305511 8.838303
v -75.915421 129.750473 8.838303
v -75.915421 134.305511 8.838303
v -75.915421 129.750473 -38.489880
v -75.915421 134.305511 -38.489880
v 89.309822 129.750473 -38.489880
v 89.309822 134.305511 -38.489880
v 89.309822 156.970215 8.838303
v 89.309822 161.844131 8.838303
v -75.915421 156.970215 8.838303
v -75.915421 161.844131 8.838303
v -75.915421 156.970215 -38.489880
v -75.915421 161.844131 -38.489880
v 89.309822 156.970215 -38.489880
v 89.309822 161.844131 -38.489880
v 89.309822 171.012619 8.838303
v 89.309822 176.093750 8.838303
v -75.915421 171.012619 8.838303
v -75.915421 176.093750 8.838303
v -75.915421 171.012619 -38.489880
v -75.915421 176.093750 -38.489880
v 89.309822 171.012619 -38.489880
v 89.309822 176.093750 -38.489880
v 89.309822 185.380356 8.838303
v 89.309822 190.018021 8.838303
v -75.915421 185.380356 8.838303
v -75.915421 190.018021 8.838303
v -75.915421 185.380356 -38.489880
v -75.915421 190.018021 -38.489880
v 89.309822 185.380356 -38.489880
v 89.309822 190.018021 -38.489880
v 89.309822 199.521088 8.838303
v 89.309822 204.169327 8.838303
v -75.915421 199.521088 8.838303
v -75.915421 204.169327 8.838303
v -75.915421 199.521088 -38.489880
v -75.915421 204.169327 -38.489880
v 89.309822 199.521088 -38.489880
v 89.309822 204.169327 -38.489880
v 89.309822 212.877579 8.838303
v 89.309822 217.729782 8.838303
v -75.915421 212.877579 8.838303
v -75.915421 217.729782 8.838303
v -75.915421 212.877579 -38.489880
v -75.915421 217.729782 -38.489880
v 89.309822 212.877579 -38.489880
v 89.309822 217.729782 -38.489880
v 89.309822 226.101288 8.838303
v 89.309822 230.141251 8.838303
v -75.915421 226.101288 8.838303
v -75.915421 230.141251 8.838303
v -75.915421 226.101288 -38.489880
v -75.915421 230.141251 -38.489880
v 89.309822 226.101288 -38.489880
v 89.309822 230.141251 -38.489880
v 89.309822 240.154755 8.838303
v 89.309822 244.286499 8.838303
v -75.915421 240.154755 8.838303
v -75.915421 244.286499 8.838303
v -75.915421 240.154755 -38.489880
v -75.915421 244.286499 -38.489880
v 89.309822 240.154755 -38.489880
v 89.309822 244.286499 -38.489880
v 89.309822 252.392334 8.838303
v 89.309822 256.402344 8.838303
v -75.915421 252.392334 8.838303
v -75.915421 256.402344 8.838303
v -75.915421 252.392334 -38.489880
v -75.915421 256.402344 -38.489880
v 89.309822 252.392334 -38.489880
v 89.309822 256.402344 -38.489880
v -82.754791 106.238251 -35.765717
v 92.946518 106.238251 -35.765717
v -82.754791 308.335876 -35.765717
v 92.946518 308.335876 -35.765701
v -87.751740 102.045685 55.212391
v 98.961304 102.045685 55.212391
v -87.751740 109.623627 55.212391
v 98.961304 109.623627 55.212391
v -87.751740 109.623627 -43.699062
v 98.961304 109.623627 -43.699062
v -87.751740 102.045685 -43.699062
v 98.961304 102.045685 -43.699062
v -77.868629 102.045685 -38.463470
v 89.078194 102.045685 -38.463470
v 89.078194 102.045685 49.976799
v -77.868629 102.045685 49.976799
v -77.868629 -0.878487 -38.463470
v 89.078194 -0.878487 -38.463470
v 89.078194 -0.878487 49.976799
v -77.868629 -0.878487 49.976799
v -62.320488 106.238251 10.162563
v -60.298714 106.238251 10.162563
v -62.320488 308.335876 10.162563
v -60.298714 308.335876 10.162563
v -62.320488 308.335876 -37.165619
v -60.298714 308.335876 -37.165619
v -62.320488 106.238251 -37.165619
v -60.298714 106.238251 -37.165619
v -35.031967 106.238251 10.162563
v -33.010193 106.238251 10.162563
v -35.031967 308.335876 10.162563
v -33.010193 308.335876 10.162563
v -35.031967 308.335876 -37.165619
v -33.010193 308.335876 -37.165619
v -35.031967 106.238251 -37.165619
v -33.010193 106.238251 -37.165619
v -48.676228 106.238251 10.162563
v -46.654453 106.238251 10.162563
v -48.676228 308.335876 10.162563
v -46.654453 308.335876 10.162563
v -48.676228 308.335876 -37.165619
v -46.654453 308.335876 -37.165619
v -48.676228 106.238251 -37.165619
v -46.654453 106.238251 -37.165619
v -21.297049 106.238251 10.162563
v -19.275274 106.238251 10.162563
v -21.297049 308.335876 10.162563
v -19.275274 308.335876 10.162563
v -21.297049 308.335876 -37.165619
v -19.275274 308.335876 -37.165619
v -21.297049 106.238251 -37.165619
v -19.275274 106.238251 -37.165619
v -7.151035 106.238251 10.162563
v -5.129261 106.238251 10.162563
v -7.151035 308.335876 10.162563
v -5.129261 308.335876 10.162563
v -7.151035 308.335876 -37.165619
v -5.129261 308.335876 -37.165619
v -7.151035 106.238251 -37.165619
v -5.129261 106.238251 -37.165619
v 6.994979 106.238251 10.162563
v 9.016753 106.238251 10.162563
v 6.994979 308.335876 10.162563
v 9.016753 308.335876 10.162563
v 6.994979 308.335876 -37.165619
v 9.016753 308.335876 -37.165619
v 6.994979 106.238251 -37.165619
v 9.016753 106.238251 -37.165619
v 21.140993 106.238251 10.162563
v 23.162767 106.238251 10.162563
v 21.140993 308.335876 10.162563
v 23.162767 308.335876 10.162563
v 21.140993 308.335876 -37.165619
v 23.162767 308.335876 -37.165619
v 21.140993 106.238251 -37.165619
v 23.162767 106.238251 -37.165619
v 34.599464 106.238251 10.162563
v 36.621239 106.238251 10.162563
v 34.599464 308.335876 10.162563
v 36.621239 308.335876 10.162563
v 34.599464 308.335876 -37.165619
v 36.621239 308.335876 -37.165619
v 34.599464 106.238251 -37.165619
v 36.621239 106.238251 -37.165619
v 47.417053 106.238251 10.162563
v 49.438828 106.238251 10.162563
v 47.417053 308.335876 10.162563
v 49.438828 308.335876 10.162563
v 47.417053 308.335876 -37.165619
v 49.438828 308.335876 -37.165619
v 47.417053 106.238251 -37.165619
v 49.438828 106.238251 -37.165619
v 60.078457 106.238251 10.162563
v 62.100231 106.238251 10.162563
v 60.078457 308.335876 10.162563
v 62.100231 308.335876 10.162563
v 60.078457 308.335876 -37.165619
v 62.100231 308.335876 -37.165619
v 60.078457 106.238251 -37.165619
v 62.100231 106.238251 -37.165619
v 73.693115 106.238251 10.162563
v 75.714890 106.238251 10.162563
v 73.693115 308.335876 10.162563
v 75.714890 308.335876 10.162563
v 73.693115 308.335876 -37.165619
v 75.714890 308.335876 -37.165619
v 73.693115 106.238251 -37.165619
v 75.714890 106.238251 -37.165619
vt 0.392517 0.006629
vt 0.788836 0.007927
vt 0.788916 0.023958
vt 0.392467 0.022730
vt 0.787612 0.232678
vt 0.392451 0.231527
vt 0.996309 0.005242
vt 0.996552 0.021142
vt 0.174237 0.005317
vt 0.174150 0.022051
vt 0.997791 0.023336
vt 0.997982 0.178580
vt 0.818083 0.177792
vt 0.817594 0.023324
vt 0.995772 0.470378
vt 0.816390 0.468356
vt 0.992445 0.624538
vt 0.813216 0.621084
vt 0.120359 0.951104
vt 0.992714 0.951104
vt 0.992714 0.994495
vt 0.120359 0.994495
vt 0.996768 0.648257
vt 0.996767 0.672196
vt 0.121143 0.672196
vt 0.121143 0.648257
vt 0.996768 0.703786
vt 0.996768 0.728171
vt 0.121142 0.728171
vt 0.121142 0.703786
vt 0.996767 0.676756
vt 0.996767 0.700896
vt 0.121143 0.700896
vt 0.121143 0.676756
vt 0.996767 0.731854
vt 0.996767 0.757683
vt 0.121143 0.757683
vt 0.121143 0.731854
vt 0.996767 0.762884
vt 0.996767 0.789812
vt 0.121143 0.789813
vt 0.121143 0.762885
vt 0.996768 0.791871
vt 0.996768 0.816449
vt 0.121143 0.816449
vt 0.121143 0.791871
vt 0.996768 0.819655
vt 0.996768 0.844288
vt 0.121142 0.844289
vt 0.121142 0.819655
vt 0.996767 0.845934
vt 0.996767 0.871649
vt 0.121143 0.871649
vt 0.121143 0.845934
vt 0.996768 0.875499
vt 0.996768 0.896909
vt 0.121142 0.896909
vt 0.121142 0.875499
vt 0.996768 0.899909
vt 0.996768 0.921806
vt 0.121142 0.921806
vt 0.121142 0.899909
vt 0.996767 0.924158
vt 0.996767 0.945409
vt 0.121143 0.945409
vt 0.121144 0.924158
vt 0.259753 0.237769
vt 0.688250 0.237769
vt 0.688250 0.347385
vt 0.259753 0.347385
vt 0.815610 0.237769
vt 0.815610 0.347385
vt 0.132393 0.237769
vt 0.132393 0.347385
vt 0.329173 0.348609
vt 0.397064 0.348609
vt 0.397064 0.416501
vt 0.329173 0.416501
vt 0.267252 0.362764
vt 0.060663 0.552521
vt 0.060663 0.609973
vt 0.267252 0.420215
vt 0.209801 0.420215
vt 0.209801 0.362764
vt 0.119394 0.494335
vt 0.119394 0.551786
vt 0.061943 0.551786
vt 0.061943 0.494335
vt 0.192135 0.028554
vt 0.296479 0.028554
vt 0.296479 0.233645
vt 0.192135 0.233645
vt 0.003577 0.838523
vt 0.059615 0.838523
vt 0.117884 0.894561
vt 0.061846 0.894561
vt 0.059615 0.894561
vt 0.003577 0.894561
vt 0.063244 0.552189
vt 0.120696 0.552189
vt 0.120696 0.609641
vt 0.063244 0.609641
vt 0.122855 0.314176
vt 0.065404 0.314176
vt 0.065404 0.256724
vt 0.122855 0.256724
vt 0.061128 0.837420
vt 0.005090 0.837420
vt 0.005090 0.781382
vt 0.061128 0.781382
vt 0.060561 0.492220
vt 0.003110 0.492220
vt 0.003110 0.434768
vt 0.060561 0.434768
vt 0.188364 0.180968
vt 0.141269 0.180968
vt 0.141269 0.133873
vt 0.188364 0.133873
vt 0.188213 0.085722
vt 0.141118 0.085722
vt 0.141118 0.038627
vt 0.188213 0.038627
vt 0.120911 0.780747
vt 0.064873 0.780747
vt 0.064873 0.724709
vt 0.120911 0.724709
vt 0.060372 0.723992
vt 0.004333 0.723992
vt 0.004333 0.667953
vt 0.060372 0.667953
vt 0.068427 0.434194
vt 0.010975 0.434194
vt 0.010975 0.376742
vt 0.068427 0.376742
vt 0.198471 0.415565
vt 0.141019 0.415565
vt 0.141019 0.358113
vt 0.198471 0.358113
vt 0.061783 0.375505
vt 0.004332 0.375505
vt 0.004332 0.318053
vt 0.061783 0.318053
vt 0.138451 0.181409
vt 0.091394 0.181409
vt 0.091394 0.134352
vt 0.138451 0.134352
vt 0.114098 0.896214
vt 0.114098 1.000559
vt 0.090597 0.977057
vt 0.090597 0.919715
vt 0.009754 1.000559
vt 0.033255 0.977057
vt 0.009754 0.896214
vt 0.033255 0.919715
vt 0.327449 0.361872
vt 0.327449 0.419323
vt 0.269997 0.419323
vt 0.269997 0.361872
vt 0.059699 0.550191
vt 0.002248 0.550191
vt 0.002248 0.492740
vt 0.059699 0.492740
vt 0.062340 0.314176
vt 0.004889 0.314176
vt 0.004889 0.256724
vt 0.062340 0.256724
vt 0.188940 0.132923
vt 0.141846 0.132923
vt 0.141846 0.085828
vt 0.188940 0.085828
vt 0.120154 0.837984
vt 0.064116 0.837984
vt 0.064116 0.781946
vt 0.120154 0.781946
vt 0.119395 0.493728
vt 0.061943 0.493728
vt 0.061943 0.436277
vt 0.119395 0.436277
vt 0.188332 0.230193
vt 0.141237 0.230193
vt 0.141237 0.183098
vt 0.188332 0.183098
vt 0.061885 0.781132
vt 0.005847 0.781132
vt 0.005847 0.725094
vt 0.061885 0.725094
vt 0.118641 0.723703
vt 0.062603 0.723703
vt 0.062603 0.667665
vt 0.118641 0.667665
vt 0.131628 0.069199
vt 0.074177 0.069199
vt 0.074177 0.011747
vt 0.131628 0.011747
vt 0.136089 0.435220
vt 0.078638 0.435220
vt 0.078638 0.377769
vt 0.136089 0.377769
vt 0.071889 0.070750
vt 0.014438 0.070750
vt 0.014438 0.013299
vt 0.071889 0.013299
vt 0.122212 0.374643
vt 0.064760 0.374643
vt 0.064760 0.317191
vt 0.122212 0.317191
vt 0.132171 0.446070
vt 0.176410 0.446070
vt 0.176410 0.646436
vt 0.132171 0.646436
vt 0.954905 0.625749
vt 0.954905 0.645321
vt 0.829625 0.645321
vt 0.829625 0.625749
vt 0.005227 0.073703
vt 0.088369 0.073703
vt 0.088369 0.252708
vt 0.005227 0.252708
vt 0.224863 0.420120
vt 0.269103 0.420120
vt 0.269103 0.620487
vt 0.224863 0.620487
vt 0.448103 0.420039
vt 0.492342 0.420039
vt 0.492342 0.620405
vt 0.448103 0.620405
vt 0.493592 0.419092
vt 0.537831 0.419092
vt 0.537831 0.619459
vt 0.493592 0.619459
vt 0.539535 0.419092
vt 0.583774 0.419092
vt 0.583774 0.619459
vt 0.539535 0.619459
vt 0.585246 0.419092
vt 0.629485 0.419092
vt 0.629485 0.619459
vt 0.585246 0.619459
vt 0.630767 0.419092
vt 0.675007 0.419092
vt 0.675007 0.619459
vt 0.630767 0.619459
vt 0.675740 0.419092
vt 0.719979 0.419092
vt 0.719979 0.619459
vt 0.675740 0.619459
vt 0.722303 0.419092
vt 0.766542 0.419092
vt 0.766542 0.619459
vt 0.722303 0.619459
vt 0.769377 0.419092
vt 0.813616 0.419092
vt 0.813616 0.619459
vt 0.769377 0.619459
vt 0.342000 0.031762
vt 0.386239 0.031762
vt 0.386239 0.232129
vt 0.342000 0.232129
vt 0.296485 0.031000
vt 0.340724 0.031000
vt 0.340724 0.231366
vt 0.296485 0.231366
vt 0.121887 0.445510
vt 0.131018 0.445510
vt 0.131018 0.645877
vt 0.121887 0.645877
vt 0.807873 0.622154
vt 0.807873 0.646288
vt 0.222660 0.646288
vt 0.222660 0.622154
vt 0.177234 0.446070
vt 0.184740 0.446070
vt 0.184740 0.646436
vt 0.177234 0.646436
vt 0.271508 0.420030
vt 0.445705 0.420030
vt 0.445705 0.620396
vt 0.271508 0.620396
vt 0.185582 0.447053
vt 0.187910 0.447053
vt 0.187910 0.647420
vt 0.185582 0.647420
vt 0.189427 0.447053
vt 0.191755 0.447053
vt 0.191755 0.647420
vt 0.189427 0.647420
vt 0.192736 0.446777
vt 0.195064 0.446777
vt 0.195064 0.647144
vt 0.192736 0.647144
vt 0.196030 0.446272
vt 0.198359 0.446272
vt 0.198359 0.646638
vt 0.196030 0.646638
vt 0.213452 0.446207
vt 0.215780 0.446207
vt 0.215780 0.646573
vt 0.213452 0.646573
vt 0.216847 0.446207
vt 0.219176 0.446207
vt 0.219176 0.646573
vt 0.216847 0.646573
vt 0.219754 0.446207
vt 0.222082 0.446207
vt 0.222082 0.646573
vt 0.219754 0.646573
vt 0.199629 0.446540
vt 0.201957 0.446540
vt 0.201957 0.646907
vt 0.199629 0.646907
vt 0.202662 0.446540
vt 0.204990 0.446540
vt 0.204990 0.646907
vt 0.202662 0.646907
vt 0.205998 0.446540
vt 0.208327 0.446540
vt 0.208327 0.646907
vt 0.205998 0.646907
vt 0.210294 0.446540
vt 0.212623 0.446540
vt 0.212623 0.646907
vt 0.210294 0.646907
vt 0.007243 0.610474
vt 0.063281 0.610474
vt 0.063281 0.666512
vt 0.007243 0.666512
vt 0.092046 0.085962
vt 0.135570 0.085962
vt 0.135570 0.129486
vt 0.092046 0.129486
vt 0.092176 0.185645
vt 0.137129 0.185645
vt 0.137129 0.230598
vt 0.092176 0.230598
vt 0.063627 0.610845
vt 0.119665 0.610845
vt 0.119665 0.666883
vt 0.063627 0.666883
vt 0.747680 0.349281
vt 0.815572 0.349281
vt 0.815572 0.417172
vt 0.747680 0.417172
vt 0.677086 0.349974
vt 0.744977 0.349974
vt 0.744977 0.417865
vt 0.677086 0.417865
vt 0.607641 0.349526
vt 0.675532 0.349526
vt 0.675532 0.417417
vt 0.607641 0.417417
vt 0.537046 0.349526
vt 0.604938 0.349526
vt 0.604938 0.417417
vt 0.537046 0.417417
vt 0.467601 0.350443
vt 0.535493 0.350443
vt 0.535493 0.418334
vt 0.467601 0.418334
vt 0.397929 0.349526
vt 0.465820 0.349526
vt 0.465820 0.417417
vt 0.397929 0.417417
vt 0.003212 0.609973
vt 0.003212 0.552521
vt 0.061846 0.838523
vt 0.117884 0.838523
vn -0.000000 0.000000 1.000000
vn -0.000000 0.000000 1.000000
vn -0.000000 0.000000 1.000000
vn -0.000000 0.000000 1.000000
vn 0.000000 -1.000000 0.000000
vn 0.000000 -1.000000 0.000000
vn 0.000000 -1.000000 0.000000
vn 0.000000 -1.000000 0.000000
vn -1.000000 0.000000 0.000000
vn -1.000000 0.000000 0.000000
vn -1.000000 0.000000 0.000000
vn -1.000000 0.000000 0.000000
vn 0.000000 0.000000 1.000000
vn 0.000000 0.000000 1.000000
vn 0.000000 0.000000 1.000000
vn 0.000000 0.000000 1.000000
vn 0.000000 1.000000 0.000000
vn 0.000000 1.000000 0.000000
vn 0.000000 1.000000 0.000000
vn 0.000000 1.000000 0.000000
vn 0.000000 -1.000000 0.000000
vn 0.000000 -1.000000 0.000000
vn 0.000000 -1.000000 0.000000
vn 0.000000 -1.000000 0.000000
vn 1.000000 0.000000 0.000000
vn 1.000000 0.000000 0.000000
vn 1.000000 0.000000 0.000000
vn 1.000000 0.000000 0.000000
vn -1.000000 0.000000 0.000000
vn -1.000000 0.000000 0.000000
vn -1.000000 0.000000 0.000000
vn -1.000000 0.000000 0.000000
vn 0.000000 0.000000 1.000000
vn 0.000000 0.000000 1.000000
vn 0.000000 0.000000 1.000000
vn 0.000000 0.000000 1.000000
vn 1.000000 0.000000 0.000000
vn 1.000000 0.000000 0.000000
vn 1.000000 0.000000 0.000000
vn 1.000000 0.000000 0.000000
vn -1.000000 0.000000 0.000000
vn -1.000000 0.000000 0.000000
vn -1.000000 0.000000 0.000000
vn -1.000000 0.000000 0.000000
vn 0.000000 0.000000 1.000000
vn 0.000000 0.000000 1.000000
vn 0.000000 0.000000 1.000000
vn 0.000000 0.000000 1.000000
vn 1.000000 0.000000 0.000000
vn 1.000000 0.000000 0.000000
vn 1.000000 0.000000 0.000000
vn 1.000000 0.000000 0.000000
vn -1.000000 0.000000 0.000000
vn -1.000000 0.000000 0.000000
vn -1.000000 0.000000 0.000000
vn -1.000000 0.000000 0.000000
vn 0.000000 -1.000000 0.000000
vn 0.000000 -1.000000 0.000000
vn 0.000000 -1.000000 0.000000
vn 0.000000 -1.000000 0.000000
vn 0.000000 1.000000 0.000000
vn 0.000000 1.000000 0.000000
vn 0.000000 1.000000 0.000000
vn 0.000000 1.000000 0.000000
vn 0.000000 -0.000000 1.000000
vn 0.000000 -0.000000 1.000000
vn 0.000000 -0.000000 1.000000
vn 0.000000 -0.000000 1.000000
vn 1.000000 -0.000000 0.000000
vn 1.000000 -0.000000 0.000000
vn 1.000000 -0.000000 0.000000
vn 1.000000 -0.000000 0.000000
vn -1.000000 -0.000000 0.000000
vn -1.000000 -0.000000 0.000000
vn -1.000000 -0.000000 0.000000
vn -1.000000 -0.000000 0.000000
vn 0.000000 0.000000 1.000000
vn 0.000000 0.000000 1.000000
vn 0.000000 0.000000 1.000000
vn 0.000000 0.000000 1.000000
vn 0.000000 1.000000 0.000000
vn 0.000000 1.000000 0.000000
vn 0.000000 1.000000 0.000000
vn 0.000000 1.000000 0.000000
vn 0.000000 -1.000000 0.000000
vn 0.000000 -1.000000 0.000000
vn 0.000000 -1.000000 0.000000
vn 0.000000 -1.000000 0.000000
vn 0.000000 0.000000 1.000000
vn 0.000000 0.000000 1.000000
vn 0.000000 0.000000 1.000000
vn 0.000000 0.000000 1.000000
vn 0.000000 1.000000 0.000000
vn 0.000000 1.000000 0.000000
vn 0.000000 1.000000 0.000000
vn 0.000000 1.000000 0.000000
vn 0.000000 -1.000000 0.000000
vn 0.000000 -1.000000 0.000000
vn 0.000000 -1.000000 0.000000
vn 0.000000 -1.000000 0.000000
vn 0.000000 0.000000 1.000000
vn 0.000000 0.000000 1.000000
vn 0.000000 0.000000 1.000000
vn 0.000000 0.000000 1.000000
vn 0.000000 1.000000 0.000000
vn 0.000000 1.000000 0.000000
vn 0.000000 1.000000 0.000000
vn 0.000000 1.000000 0.000000
vn 0.000000 -1.000000 0.000000
vn 0.000000 -1.000000 0.000000
vn 0.000000 -1.000000 0.000000
vn 0.000000 -1.000000 0.000000
vn 0.000000 0.000000 1.000000
vn 0.000000 0.000000 1.000000
vn 0.000000 0.000000 1.000000
vn 0.000000 0.000000 1.000000
vn 0.000000 1.000000 0.000000
vn 0.000000 1.000000 0.000000
vn 0.000000 1.000000 0.000000
vn 0.000000 1.000000 0.000000
vn 0.000000 -1.000000 0.000000
vn 0.000000 -1.000000 0.000000
vn 0.000000 -1.000000 0.000000
vn 0.000000 -1.000000 0.000000
vn 0.000000 0.000000 1.000000
vn 0.000000 0.000000 1.000000
vn 0.000000 0.000000 1.000000
vn 0.000000 0.000000 1.000000
vn 0.000000 1.000000 0.000000
vn 0.000000 1.000000 0.000000
vn 0.000000 1.000000 0.000000
vn 0.000000 1.000000 0.000000
vn 0.000000 -1.000000 0.000000
vn 0.000000 -1.000000 0.000000
vn 0.000000 -1.000000 0.000000
vn 0.000000 -1.000000 0.000000
vn 0.000000 0.000000 1.000000
vn 0.000000 0.000000 1.000000
vn 0.000000 0.000000 1.000000
vn 0.000000 0.000000 1.000000
vn 0.000000 1.000000 0.000000
vn 0.000000 1.000000 0.000000
vn 0.000000 1.000000 0.000000
vn 0.000000 1.000000 0.000000
vn 0.000000 -1.000000 0.000000
vn 0.000000 -1.000000 0.000000
vn 0.000000 -1.000000 0.000000
vn 0.000000 -1.000000 0.000000
vn 0.000000 0.000000 1.000000
vn 0.000000 0.000000 1.000000
vn 0.000000 0.000000 1.000000
vn 0.000000 0.000000 1.000000
vn 0.000000 1.000000 0.000000
vn 0.000000 1.000000 0.000000
vn 0.000000 1.000000 0.000000
vn 0.000000 1.000000 0.000000
vn 0.000000 -1.000000 0.000000
vn 0.000000 -1.000000 0.000000
vn 0.000000 -1.000000 0.000000
vn 0.000000 -1.000000 0.000000
vn 0.000000 0.000000 1.000000
vn 0.000000 0.000000 1.000000
vn 0.000000 0.000000 1.000000
vn 0.000000 0.000000 1.000000
vn 0.000000 1.000000 0.000000
vn 0.000000 1.000000 0.000000
vn 0.000000 1.000000 0.000000
vn 0.000000 1.000000 0.000000
vn 0.000000 -1.000000 0.000000
vn 0.000000 -1.000000 0.000000
vn 0.000000 -1.000000 0.000000
vn 0.000000 -1.000000 0.000000
vn 0.000000 0.000000 1.000000
vn 0.000000 0.000000 1.000000
vn 0.000000 0.000000 1.000000
vn 0.000000 0.000000 1.000000
vn 0.000000 1.000000 0.000000
vn 0.000000 1.000000 0.000000
vn 0.000000 1.000000 0.000000
vn 0.000000 1.000000 0.000000
vn 0.000000 -1.000000 0.000000
vn 0.000000 -1.000000 0.000000
vn 0.000000 -1.000000 0.000000
vn 0.000000 -1.000000 0.000000
vn 0.000000 0.000000 1.000000
vn 0.000000 0.000000 1.000000
vn 0.000000 0.000000 1.000000
vn 0.000000 0.000000 1.000000
vn 0.000000 1.000000 0.000000
vn 0.000000 1.000000 0.000000
vn 0.000000 1.000000 0.000000
vn 0.000000 1.000000 0.000000
vn 0.000000 -1.000000 0.000000
vn 0.000000 -1.000000 0.000000
vn 0.000000 -1.000000 0.000000
vn 0.000000 -1.000000 0.000000
vn 0.000000 0.000000 1.000000
vn 0.000000 0.000000 1.000000
vn 0.000000 0.000000 1.000000
vn 0.000000 0.000000 1.000000
vn 0.000000 1.000000 0.000000
vn 0.000000 1.000000 0.000000
vn 0.000000 1.000000 0.000000
vn 0.000000 1.000000 0.000000
vn 0.000000 -1.000000 0.000000
vn 0.000000 -1.000000 0.000000
vn 0.000000 -1.000000 0.000000
vn 0.000000 -1.000000 0.000000
vn -0.000000 -0.000000 1.000000
vn -0.000000 -0.000000 1.000000
vn -0.000000 -0.000000 1.000000
vn -0.000000 -0.000000 1.000000
vn 0.000000 0.000000 1.000000
vn 0.000000 0.000000 1.000000
vn 0.000000 0.000000 1.000000
vn 0.000000 0.000000 1.000000
vn 0.000000 1.000000 0.000000
vn 0.000000 1.000000 0.000000
vn 0.000000 1.000000 0.000000
vn 0.000000 1.000000 0.000000
vn 1.000000 0.000000 0.000000
vn 1.000000 0.000000 0.000000
vn 1.000000 0.000000 0.000000
vn 1.000000 0.000000 0.000000
vn -1.000000 0.000000 0.000000
vn -1.000000 0.000000 0.000000
vn -1.000000 0.000000 0.000000
vn -1.000000 0.000000 0.000000
vn 0.000000 -1.000000 0.000002
vn 0.000000 -1.000000 0.000002
vn 0.000000 -1.000000 0.000002
vn 0.000000 -1.000000 0.000002
vn 0.000000 -1.000000 0.000000
vn 0.000000 -1.000000 0.000000
vn 0.000000 -1.000000 0.000000
vn 0.000000 -1.000000 0.000000
vn 0.000000 -1.000000 -0.000002
vn 0.000000 -1.000000 -0.000002
vn 0.000000 -1.000000 -0.000002
vn 0.000000 -1.000000 -0.000002
vn 0.000000 -1.000000 0.000000
vn 0.000000 -1.000000 0.000000
vn 0.000000 -1.000000 0.000000
vn 0.000000 -1.000000 0.000000
vn 1.000000 0.000000 0.000000
vn 1.000000 0.000000 0.000000
vn 1.000000 0.000000 0.000000
vn 1.000000 0.000000 0.000000
vn 0.000000 0.000000 1.000000
vn 0.000000 0.000000 1.000000
vn 0.000000 0.000000 1.000000
vn 0.000000 0.000000 1.000000
vn -1.000000 0.000000 0.000000
vn -1.000000 0.000000 0.000000
vn -1.000000 0.000000 0.000000
vn -1.000000 0.000000 0.000000
vn 0.000000 0.000000 1.000000
vn 0.000000 0.000000 1.000000
vn 0.000000 0.000000 1.000000
vn 0.000000 0.000000 1.000000
vn 1.000000 0.000000 0.000000
vn 1.000000 0.000000 0.000000
vn 1.000000 0.000000 0.000000
vn 1.000000 0.000000 0.000000
vn -1.000000 0.000000 0.000000
vn -1.000000 0.000000 0.000000
vn -1.000000 0.000000 0.000000
vn -1.000000 0.000000 0.000000
vn 0.000000 0.000000 1.000000
vn 0.000000 0.000000 1.000000
vn 0.000000 0.000000 1.000000
vn 0.000000 0.000000 1.000000
vn 1.000000 0.000000 0.000000
vn 1.000000 0.000000 0.000000
vn 1.000000 0.000000 0.000000
vn 1.000000 0.000000 0.000000
vn -1.000000 0.000000 0.000000
vn -1.000000 0.000000 0.000000
vn -1.000000 0.000000 0.000000
vn -1.000000 0.000000 0.000000
vn 0.000000 0.000000 1.000000
vn 0.000000 0.000000 1.000000
vn 0.000000 0.000000 1.000000
vn 0.000000 0.000000 1.000000
vn 1.000000 0.000000 0.000000
vn 1.000000 0.000000 0.000000
vn 1.000000 0.000000 0.000000
vn 1.000000 0.000000 0.000000
vn -1.000000 0.000000 0.000000
vn -1.000000 0.000000 0.000000
vn -1.000000 0.000000 0.000000
vn -1.000000 0.000000 0.000000
vn 0.000000 0.000000 1.000000
vn 0.000000 0.000000 1.000000
vn 0.000000 0.000000 1.000000
vn 0.000000 0.000000 1.000000
vn 1.000000 0.000000 0.000000
vn 1.000000 0.000000 0.000000
vn 1.000000 0.000000 0.000000
vn 1.000000 0.000000 0.000000
vn -1.000000 0.000000 0.000000
vn -1.000000 0.000000 0.000000
vn -1.000000 0.000000 0.000000
vn -1.000000 0.000000 0.000000
vn 0.000000 0.000000 1.000000
vn 0.000000 0.000000 1.000000
vn 0.000000 0.000000 1.000000
vn 0.000000 0.000000 1.000000
vn 1.000000 0.000000 0.000000
vn 1.000000 0.000000 0.000000
vn 1.000000 0.000000 0.000000
vn 1.000000 0.000000 0.000000
vn -1.000000 0.000000 0.000000
vn -1.000000 0.000000 0.000000
vn -1.000000 0.000000 0.000000
vn -1.000000 0.000000 0.000000
vn 0.000000 0.000000 1.000000
vn 0.000000 0.000000 1.000000
vn 0.000000 0.000000 1.000000
vn 0.000000 0.000000 1.000000
vn 1.000000 0.000000 0.000000
vn 1.000000 0.000000 0.000000
vn 1.000000 0.000000 0.000000
vn 1.000000 0.000000 0.000000
vn -1.000000 0.000000 0.000000
vn -1.000000 0.000000 0.000000
vn -1.000000 0.000000 0.000000
vn -1.000000 0.000000 0.000000
vn 0.000000 0.000000 1.000000
vn 0.000000 0.000000 1.000000
vn 0.000000 0.000000 1.000000
vn 0.000000 0.000000 1.000000
vn 1.000000 0.000000 0.000000
vn 1.000000 0.000000 0.000000
vn 1.000000 0.000000 0.000000
vn 1.000000 0.000000 0.000000
vn -1.000000 0.000000 0.000000
vn -1.000000 0.000000 0.000000
vn -1.000000 0.000000 0.000000
vn -1.000000 0.000000 0.000000
vn 0.000000 0.000000 1.000000
vn 0.000000 0.000000 1.000000
vn 0.000000 0.000000 1.000000
vn 0.000000 0.000000 1.000000
vn 1.000000 0.000000 0.000000
vn 1.000000 0.000000 0.000000
vn 1.000000 0.000000 0.000000
vn 1.000000 0.000000 0.000000
vn -1.000000 0.000000 0.000000
vn -1.000000 0.000000 0.000000
vn -1.000000 0.000000 0.000000
vn -1.000000 0.000000 0.000000
vn 0.000000 0.000000 1.000000
vn 0.000000 0.000000 1.000000
vn 0.000000 0.000000 1.000000
vn 0.000000 0.000000 1.000000
vn 1.000000 0.000000 0.000000
vn 1.000000 0.000000 0.000000
vn 1.000000 0.000000 0.000000
vn 1.000000 0.000000 0.000000
vn -1.000000 0.000000 0.000000
vn -1.000000 0.000000 0.000000
vn -1.000000 0.000000 0.000000
vn -1.000000 0.000000 0.000000
vn 0.000000 0.000000 1.000000
vn 0.000000 0.000000 1.000000
vn 0.000000 0.000000 1.000000
vn 0.000000 0.000000 1.000000
vn 1.000000 0.000000 0.000000
vn 1.000000 0.000000 0.000000
vn 1.000000 0.000000 0.000000
vn 1.000000 0.000000 0.000000
vn -1.000000 0.000000 0.000000
vn -1.000000 0.000000 0.000000
vn -1.000000 0.000000 0.000000
vn -1.000000 0.000000 0.000000
vn 0.000000 0.000000 1.000000
vn 0.000000 0.000000 1.000000
vn 0.000000 0.000000 1.000000
vn 0.000000 0.000000 1.000000
vn 1.000000 0.000000 0.000000
vn 1.000000 0.000000 0.000000
vn 1.000000 0.000000 0.000000
vn 1.000000 0.000000 0.000000
vn -1.000000 0.000000 0.000000
vn -1.000000 0.000000 0.000000
vn -1.000000 0.000000 0.000000
vn -1.000000 0.000000 0.000000
s off
g reception_cabinet
usemtl initialShadingGroup
f 1/19/1 2/20/2 4/21/3 3/22/4
f 6/80/5 7/81/6 2/363/7 1/364/8
f 6/79/9 1/82/10 3/83/11 5/84/12
f 8/67/13 9/68/14 11/69/15 10/70/16
f 10/155/17 11/156/18 13/157/19 12/158/20
f 14/85/21 15/86/22 9/87/23 8/88/24
f 9/68/25 15/71/26 13/72/27 11/69/28
f 14/73/29 8/67/30 10/70/31 12/74/32
f 16/263/33 17/264/34 19/265/35 18/266/36
f 17/207/37 23/208/38 21/209/39 19/210/40
f 22/89/41 16/90/42 18/91/43 20/92/44
f 24/267/45 25/268/46 27/269/47 26/270/48
f 26/211/49 27/212/50 29/213/51 28/214/52
f 30/93/53 31/94/54 25/97/55 24/98/56
f 25/95/57 31/96/58 29/365/59 27/366/60
f 30/159/61 24/160/62 26/161/63 28/162/64
f 32/271/65 33/272/66 35/273/67 34/274/68
f 33/215/69 39/216/70 37/217/71 35/218/72
f 38/99/73 32/100/74 34/101/75 36/102/76
f 40/23/77 41/24/78 43/25/79 42/26/80
f 41/163/81 47/164/82 45/165/83 43/166/84
f 46/103/85 40/104/86 42/105/87 44/106/88
f 48/27/89 49/28/90 51/29/91 50/30/92
f 49/167/93 55/168/94 53/169/95 51/170/96
f 54/107/97 48/108/98 50/109/99 52/110/100
f 56/31/101 57/32/102 59/33/103 58/34/104
f 57/171/105 63/172/106 61/173/107 59/174/108
f 62/111/109 56/112/110 58/113/111 60/114/112
f 64/35/113 65/36/114 67/37/115 66/38/116
f 65/175/117 71/176/118 69/177/119 67/178/120
f 70/115/121 64/116/122 66/117/123 68/118/124
f 72/39/125 73/40/126 75/41/127 74/42/128
f 73/179/129 79/180/130 77/181/131 75/182/132
f 78/119/133 72/120/134 74/121/135 76/122/136
f 80/43/137 81/44/138 83/45/139 82/46/140
f 81/183/141 87/184/142 85/185/143 83/186/144
f 86/123/145 80/124/146 82/125/147 84/126/148
f 88/47/149 89/48/150 91/49/151 90/50/152
f 89/187/153 95/188/154 93/189/155 91/190/156
f 94/127/157 88/128/158 90/129/159 92/130/160
f 96/51/161 97/52/162 99/53/163 98/54/164
f 97/191/165 103/192/166 101/193/167 99/194/168
f 102/131/169 96/132/170 98/133/171 100/134/172
f 104/55/173 105/56/174 107/57/175 106/58/176
f 105/195/177 111/196/178 109/197/179 107/198/180
f 110/135/181 104/136/182 106/137/183 108/138/184
f 112/59/185 113/60/186 115/61/187 114/62/188
f 113/199/189 119/200/190 117/201/191 115/202/192
f 118/139/193 112/140/194 114/141/195 116/142/196
f 120/63/197 121/64/198 123/65/199 122/66/200
f 121/203/201 127/204/202 125/205/203 123/206/204
f 126/143/205 120/144/206 122/145/207 124/146/208
f 128/275/209 129/276/210 131/277/211 130/278/212
f 132/1/213 133/2/214 135/3/215 134/4/216
f 134/4/217 135/3/218 137/5/219 136/6/220
f 133/2/221 139/7/222 137/8/223 135/3/224
f 138/9/225 132/1/226 134/4/227 136/10/228
f 138/147/229 139/148/230 141/149/231 140/150/232
f 139/148/233 133/151/234 142/152/235 141/149/236
f 133/151/237 132/153/238 143/154/239 142/152/240
f 132/153/241 138/147/242 140/150/243 143/154/244
f 141/11/245 142/12/246 146/13/247 145/14/248
f 142/12/249 143/15/250 147/16/251 146/13/252
f 143/15/253 140/17/254 144/18/255 147/16/256
f 148/279/257 149/280/258 151/281/259 150/282/260
f 149/219/261 155/220/262 153/221/263 151/222/264
f 154/323/265 148/324/266 150/325/267 152/326/268
f 156/283/269 157/284/270 159/285/271 158/286/272
f 157/223/273 163/224/274 161/225/275 159/226/276
f 162/327/277 156/328/278 158/329/279 160/330/280
f 164/287/281 165/288/282 167/289/283 166/290/284
f 165/227/285 171/228/286 169/229/287 167/230/288
f 170/331/289 164/332/290 166/333/291 168/334/292
f 172/291/293 173/292/294 175/293/295 174/294/296
f 173/231/297 179/232/298 177/233/299 175/234/300
f 178/335/301 172/336/302 174/337/303 176/338/304
f 180/295/305 181/296/306 183/297/307 182/298/308
f 181/235/309 187/236/310 185/237/311 183/238/312
f 186/339/313 180/340/314 182/341/315 184/342/316
f 188/299/317 189/300/318 191/301/319 190/302/320
f 189/239/321 195/240/322 193/241/323 191/242/324
f 194/343/325 188/344/326 190/345/327 192/346/328
f 196/303/329 197/304/330 199/305/331 198/306/332
f 197/243/333 203/244/334 201/245/335 199/246/336
f 202/347/337 196/348/338 198/349/339 200/350/340
f 204/307/341 205/308/342 207/309/343 206/310/344
f 205/247/345 211/248/346 209/249/347 207/250/348
f 210/351/349 204/352/350 206/353/351 208/354/352
f 212/311/353 213/312/354 215/313/355 214/314/356
f 213/251/357 219/252/358 217/253/359 215/254/360
f 218/355/361 212/356/362 214/357/363 216/358/364
f 220/315/365 221/316/366 223/317/367 222/318/368
f 221/255/369 227/256/370 225/257/371 223/258/372
f 226/359/373 220/360/374 222/361/375 224/362/376
f 228/319/377 229/320/378 231/321/379 230/322/380
f 229/259/381 235/260/382 233/261/383 231/262/384
f 234/75/385 228/76/386 230/77/387 232/78/388
